  0
SECTION
  2
HEADER
  9
$ACADVER
  1
AC1009
  9
$INSBASE
 10
0.0
 20
0.0
 30
0.0
  9
$EXTMIN
 10
0.0
 20
0.0
 30
0.0
  9
$EXTMAX
 10
88.9538667189869585
 20
130.5385250358930875
 30
0.0
  9
$LIMMIN
 10
0.0
 20
0.0
  9
$LIMMAX
 10
88.9538667189869585
 20
130.5385250358930875
  9
$ORTHOMODE
 70
     0
  9
$REGENMODE
 70
     1
  9
$FILLMODE
 70
     1
  9
$QTEXTMODE
 70
     0
  9
$MIRRTEXT
 70
     0
  9
$DRAGMODE
 70
     2
  9
$LTSCALE
 40
1.0
  9
$OSMODE
 70
     0
  9
$ATTMODE
 70
     1
  9
$TEXTSIZE
 40
0.2
  9
$TRACEWID
 40
0.05
  9
$TEXTSTYLE
  7
STANDARD
  9
$CLAYER
  8
0
  9
$CELTYPE
  6
BYLAYER
  9
$CECOLOR
 62
   256
  9
$DIMSCALE
 40
1.0
  9
$DIMASZ
 40
0.18
  9
$DIMEXO
 40
0.0625
  9
$DIMDLI
 40
0.38
  9
$DIMRND
 40
0.0
  9
$DIMDLE
 40
0.0
  9
$DIMEXE
 40
0.18
  9
$DIMTP
 40
0.0
  9
$DIMTM
 40
0.0
  9
$DIMTXT
 40
0.18
  9
$DIMCEN
 40
0.09
  9
$DIMTSZ
 40
0.0
  9
$DIMTOL
 70
     0
  9
$DIMLIM
 70
     0
  9
$DIMTIH
 70
     1
  9
$DIMTOH
 70
     1
  9
$DIMSE1
 70
     0
  9
$DIMSE2
 70
     0
  9
$DIMTAD
 70
     0
  9
$DIMZIN
 70
     0
  9
$DIMBLK
  1

  9
$DIMASO
 70
     1
  9
$DIMSHO
 70
     1
  9
$DIMPOST
  1

  9
$DIMAPOST
  1

  9
$DIMALT
 70
     0
  9
$DIMALTD
 70
     2
  9
$DIMALTF
 40
25.3999999999999986
  9
$DIMLFAC
 40
1.0
  9
$DIMTOFL
 70
     0
  9
$DIMTVP
 40
0.0
  9
$DIMTIX
 70
     0
  9
$DIMSOXD
 70
     0
  9
$DIMSAH
 70
     0
  9
$DIMBLK1
  1

  9
$DIMBLK2
  1

  9
$DIMSTYLE
  2
STANDARD
  9
$DIMCLRD
 70
     0
  9
$DIMCLRE
 70
     0
  9
$DIMCLRT
 70
     0
  9
$DIMTFAC
 40
1.0
  9
$DIMGAP
 40
0.09
  9
$LUNITS
 70
     2
  9
$LUPREC
 70
     4
  9
$SKETCHINC
 40
0.1
  9
$FILLETRAD
 40
0.0
  9
$AUNITS
 70
     0
  9
$AUPREC
 70
     0
  9
$MENU
  1
.
  9
$ELEVATION
 40
0.0
  9
$PELEVATION
 40
0.0
  9
$THICKNESS
 40
0.0
  9
$LIMCHECK
 70
     0
  9
$BLIPMODE
 70
     0
  9
$CHAMFERA
 40
0.0
  9
$CHAMFERB
 40
0.0
  9
$SKPOLY
 70
     0
  9
$TDCREATE
 40
2458581.6653009261935949
  9
$TDUPDATE
 40
2458581.6653009261935949
  9
$TDINDWG
 40
0.0
  9
$TDUSRTIMER
 40
0.0
  9
$USRTIMER
 70
     1
  9
$ANGBASE
 50
0.0
  9
$ANGDIR
 70
     0
  9
$PDMODE
 70
     0
  9
$PDSIZE
 40
0.0
  9
$PLINEWID
 40
0.0
  9
$COORDS
 70
     0
  9
$SPLFRAME
 70
     0
  9
$SPLINETYPE
 70
     6
  9
$SPLINESEGS
 70
     8
  9
$ATTDIA
 70
     1
  9
$ATTREQ
 70
     1
  9
$HANDLING
 70
     1
  9
$HANDSEED
  5
175
  9
$SURFTAB1
 70
     6
  9
$SURFTAB2
 70
     6
  9
$SURFTYPE
 70
     6
  9
$SURFU
 70
     6
  9
$SURFV
 70
     6
  9
$UCSNAME
  2

  9
$UCSORG
 10
0.0
 20
0.0
 30
0.0
  9
$UCSXDIR
 10
1.0
 20
0.0
 30
0.0
  9
$UCSYDIR
 10
0.0
 20
1.0
 30
0.0
  9
$PUCSNAME
  2

  9
$PUCSORG
 10
0.0
 20
0.0
 30
0.0
  9
$PUCSXDIR
 10
1.0
 20
0.0
 30
0.0
  9
$PUCSYDIR
 10
0.0
 20
1.0
 30
0.0
  9
$USERI1
 70
     0
  9
$USERI2
 70
     0
  9
$USERI3
 70
     0
  9
$USERI4
 70
     0
  9
$USERI5
 70
     0
  9
$USERR1
 40
0.0
  9
$USERR2
 40
0.0
  9
$USERR3
 40
0.0
  9
$USERR4
 40
0.0
  9
$USERR5
 40
0.0
  9
$WORLDVIEW
 70
     1
  9
$SHADEDGE
 70
     3
  9
$SHADEDIF
 70
    70
  9
$TILEMODE
 70
     0
  9
$MAXACTVP
 70
    64
  9
$PLIMCHECK
 70
     0
  9
$PEXTMIN
 10
0.0
 20
0.0
 30
0.0
  9
$PEXTMAX
 10
88.9538667189869585
 20
130.5385250358930875
 30
0.0
  9
$PLIMMIN
 10
0.0
 20
0.0
  9
$PLIMMAX
 10
88.9538667189869585
 20
130.5385250358930875
  9
$UNITMODE
 70
     0
  9
$VISRETAIN
 70
     1
  9
$PLINEGEN
 70
     0
  9
$PSLTSCALE
 70
     1
  0
ENDSEC
  0
SECTION
  2
TABLES
  0
TABLE
  2
VPORT
 70
     1
  0
VPORT
  2
*ACTIVE
 70
     0
 10
0.0
 20
0.0
 11
1.0
 21
1.0
 12
500.0
 22
500.0
 13
0.0
 23
0.0
 14
1.0
 24
1.0
 15
0.0
 25
0.0
 16
0.0
 26
0.0
 36
1.0
 17
0.0
 27
0.0
 37
0.0
 40
12.0
 41
1.0
 42
50.0
 43
0.0
 44
0.0
 50
0.0
 51
0.0
 71
     0
 72
   100
 73
     1
 74
     1
 75
     0
 76
     0
 77
     0
 78
     0
  0
ENDTAB
  0
TABLE
  2
LTYPE
 70
    59
  0
LTYPE
  2
CONTINUOUS
 70
     0
  3
Solid line
 72
    65
 73
     0
 40
0.0
  0
LTYPE
  2
BY_STANDARD
 70
     0
  3
By Standard ____________    ____    ____   _
 72
    65
 73
     6
 40
1.2402999999999991
 49
0.6614
 49
-0.0827
 49
0.1654
 49
-0.0827
 49
0.1654
 49
-0.0827
  0
LTYPE
  2
CHAIN
 70
     0
  3
Chain ____ _ ____ _ ____ _ ____ _ ____ _ ____
 72
    65
 73
     4
 40
0.7087
 49
0.4724000000000001
 49
-0.0591
 49
0.1181
 49
-0.0591
  0
LTYPE
  2
DASH_DOT
 70
     0
  3
Dash dot __ . __ . __ . __ . __ . __ . __ . __
 72
    65
 73
     4
 40
0.37
 49
0.24
 49
-0.06
 49
0.01
 49
-0.06
  0
LTYPE
  2
DOUBLE_DASH_DOT
 70
     0
  3
Double-Dash Dot __ __ . __ __ . __ __ . __ _
 72
    65
 73
     6
 40
0.4398
 49
0.24
 49
-0.06
 49
0.0098
 49
-0.06
 49
0.01
 49
-0.06
  0
LTYPE
  2
DASH_TRIPLE_DOT
 70
     0
  3
Dash Triple-Dot _ . . . _ . . . _ . . . _
 72
    65
 73
     8
 40
0.51
 49
0.24
 49
-0.06
 49
0.01
 49
-0.06
 49
0.01
 49
-0.06
 49
0.01
 49
-0.06
  0
LTYPE
  2
DASHED
 70
     0
  3
Dashed __ __ __ __ __ __ __ __ __ __ __ __ __ _
 72
    65
 73
     2
 40
0.2067
 49
0.1654
 49
-0.0413
  0
LTYPE
  2
DASH_DOUBLE_DOT
 70
     0
  3
Dash Double-Dot __ . . __ . . __ . . __ . .
 72
    65
 73
     6
 40
0.4398
 49
0.24
 49
-0.06
 49
0.0098
 49
-0.06
 49
0.01
 49
-0.06
  0
LTYPE
  2
DASHED_SPACE
 70
     0
  3
Dashed Space __ __ __ __ __ __ __ __ __ __ __ _
 72
    65
 73
     2
 40
0.2067
 49
0.1654
 49
-0.0413
  0
LTYPE
  2
DOTTED
 70
     0
  3
Dotted . . . . . . . . . . . . . . . . . . . . 
 72
    65
 73
     2
 40
0.0482
 49
0.0069
 49
-0.0413
  0
LTYPE
  2
DOUBLE_DASH_CHAIN
 70
     0
  3
Double-Dash Chain ______  __  __  ______  __  _
 72
    65
 73
     6
 40
1.2402999999999991
 49
0.6614
 49
-0.0827
 49
0.1654
 49
-0.0827
 49
0.1654
 49
-0.0827
  0
LTYPE
  2
DOUBLE_DASH_DOUBLE_DOT
 70
     0
  3
Double-Dash Double-dot _ _ . . _ _ . . _
 72
    65
 73
     8
 40
0.7400000000000001
 49
0.24
 49
-0.06
 49
0.24
 49
-0.06
 49
0.01
 49
-0.06
 49
0.01
 49
-0.06
  0
LTYPE
  2
DOUBLE_DASH_TRIPLE_DOT
 70
     0
  3
Double Dash Triple Dot __ __ . . . __ __ . .
 72
    65
 73
    10
 40
0.8100000000000001
 49
0.24
 49
-0.06
 49
0.24
 49
-0.06
 49
0.01
 49
-0.06
 49
0.01
 49
-0.06
 49
0.01
 49
-0.06
  0
LTYPE
  2
LONG_DASH_DOTTED
 70
     0
  3
Long Dash Dotted ____ . ____ . ____ . ____ . _
 72
    65
 73
     4
 40
0.3543
 49
0.2362
 49
-0.0295
 49
0.0591
 49
-0.0295
  0
LTYPE
  2
LONG_DASH_DOUBLE_DOT
 70
     0
  3
Long Dash Double Dot ________  .  .  ________  
 72
    65
 73
     6
 40
0.6799999999999999
 49
0.48
 49
-0.06
 49
0.01
 49
-0.06
 49
0.01
 49
-0.06
  0
LTYPE
  2
LONG_DASH_TRIPLE_DOT
 70
     0
  3
Long Dash Triple Dot ____ ... ____ ... ____
 72
    65
 73
     8
 40
0.3689
 49
0.2362
 49
-0.0295
 49
0.0049
 49
-0.0295
 49
0.0049
 49
-0.0295
 49
0.0049
 49
-0.0295
  0
LTYPE
  2
BORDER
 70
     0
  3
Border __ __ . __ __ . __ __ . __ __ . __ __ .
 72
    65
 73
     6
 40
1.75
 49
0.5
 49
-0.25
 49
0.5
 49
-0.25
 49
0.0
 49
-0.25
  0
LTYPE
  2
BORDER2
 70
     0
  3
Border (.5x) __.__.__.__.__.__.__.__.__.__.__.
 72
    65
 73
     6
 40
0.875
 49
0.25
 49
-0.125
 49
0.25
 49
-0.125
 49
0.0
 49
-0.125
  0
LTYPE
  2
BORDERX2
 70
     0
  3
Border (2x) ____  ____  .  ____  ____  .  ___
 72
    65
 73
     6
 40
3.5
 49
1.0
 49
-0.5
 49
1.0
 49
-0.5
 49
0.0
 49
-0.5
  0
LTYPE
  2
CENTER
 70
     0
  3
Center ____ _ ____ _ ____ _ ____ _ ____ _ ____
 72
    65
 73
     4
 40
2.0
 49
1.25
 49
-0.25
 49
0.25
 49
-0.25
  0
LTYPE
  2
CENTER2
 70
     0
  3
Center (.5x) ___ _ ___ _ ___ _ ___ _ ___ _ ___
 72
    65
 73
     4
 40
1.125
 49
0.75
 49
-0.125
 49
0.125
 49
-0.125
  0
LTYPE
  2
CENTERX2
 70
     0
  3
Center (2x) ________  __  ________  __  _____
 72
    65
 73
     4
 40
4.0
 49
2.5
 49
-0.5
 49
0.5
 49
-0.5
  0
LTYPE
  2
DASHDOT2
 70
     0
  3
Dash dot (.5x) _._._._._._._._._._._._._._._.
 72
    65
 73
     4
 40
0.5
 49
0.25
 49
-0.125
 49
0.0
 49
-0.125
  0
LTYPE
  2
DASHDOTX2
 70
     0
  3
Dash dot (2x) ____  .  ____  .  ____  .  ___
 72
    65
 73
     4
 40
2.0
 49
1.0
 49
-0.5
 49
0.0
 49
-0.5
  0
LTYPE
  2
DASHED2
 70
     0
  3
Dashed (.5x) _ _ _ _ _ _ _ _ _ _ _ _ _ _ _ _ _
 72
    65
 73
     2
 40
0.375
 49
0.25
 49
-0.125
  0
LTYPE
  2
DASHEDX2
 70
     0
  3
Dashed (2x) ____  ____  ____  ____  ____  ___
 72
    65
 73
     2
 40
1.5
 49
1.0
 49
-0.5
  0
LTYPE
  2
DIVIDE
 70
     0
  3
Divide ____ . . ____ . . ____ . . ____ . . ____
 72
    65
 73
     6
 40
1.25
 49
0.5
 49
-0.25
 49
0.0
 49
-0.25
 49
0.0
 49
-0.25
  0
LTYPE
  2
DIVIDE2
 70
     0
  3
Divide (.5x) __..__..__..__..__..__..__..__.._
 72
    65
 73
     6
 40
0.625
 49
0.25
 49
-0.125
 49
0.0
 49
-0.125
 49
0.0
 49
-0.125
  0
LTYPE
  2
DIVIDEX2
 70
     0
  3
Divide (2x) ________  .  .  ________  .  .  _
 72
    65
 73
     6
 40
2.5
 49
1.0
 49
-0.5
 49
0.0
 49
-0.5
 49
0.0
 49
-0.5
  0
LTYPE
  2
DOT
 70
     0
  3
Dot . . . . . . . . . . . . . . . . . . . . . .
 72
    65
 73
     2
 40
0.25
 49
0.0
 49
-0.25
  0
LTYPE
  2
DOT2
 70
     0
  3
Dot (.5x) .....................................
 72
    65
 73
     2
 40
0.125
 49
0.0
 49
-0.125
  0
LTYPE
  2
DOTX2
 70
     0
  3
Dot (2x) .  .  .  .  .  .  .  .  .  .  .  .  . 
 72
    65
 73
     2
 40
0.5
 49
0.0
 49
-0.5
  0
LTYPE
  2
HIDDEN
 70
     0
  3
Hidden __ __ __ __ __ __ __ __ __ __ __ __ __ _
 72
    65
 73
     2
 40
0.375
 49
0.25
 49
-0.125
  0
LTYPE
  2
HIDDEN2
 70
     0
  3
Hidden (.5x) _ _ _ _ _ _ _ _ _ _ _ _ _ _ _ _ _
 72
    65
 73
     2
 40
0.1875
 49
0.125
 49
-0.0625
  0
LTYPE
  2
HIDDENX2
 70
     0
  3
Hidden (2x) ____ ____ ____ ____ ____ ____ ____
 72
    65
 73
     2
 40
0.75
 49
0.5
 49
-0.25
  0
LTYPE
  2
PHANTOM
 70
     0
  3
Phantom ______  __  __  ______  __  __  ______
 72
    65
 73
     6
 40
2.5
 49
1.25
 49
-0.25
 49
0.25
 49
-0.25
 49
0.25
 49
-0.25
  0
LTYPE
  2
PHANTOM2
 70
     0
  3
Phantom (.5x) ___ _ _ ___ _ _ ___ _ _ ___ _ _
 72
    65
 73
     6
 40
1.25
 49
0.625
 49
-0.125
 49
0.125
 49
-0.125
 49
0.125
 49
-0.125
  0
LTYPE
  2
PHANTOMX2
 70
     0
  3
Phantom (2x) ____________    ____    ____   _
 72
    65
 73
     6
 40
5.0
 49
2.5
 49
-0.5
 49
0.5
 49
-0.5
 49
0.5
 49
-0.5
  0
LTYPE
  2
ACAD_ISO02W100
 70
     0
  3
ISO dash __ __ __ __ __ __ __ __ __ __ __ __ __
 72
    65
 73
     2
 40
0.59
 49
0.47
 49
-0.12
  0
LTYPE
  2
ACAD_ISO03W100
 70
     0
  3
ISO dash space __    __    __    __    __    __
 72
    65
 73
     2
 40
1.179999999999999
 49
0.47
 49
-0.71
  0
LTYPE
  2
ACAD_ISO04W100
 70
     0
  3
ISO long-dash dot ____ . ____ . ____ . ____ . _
 72
    65
 73
     4
 40
1.179999999999999
 49
0.9399999999999998
 49
-0.12
 49
0.0
 49
-0.12
  0
LTYPE
  2
ACAD_ISO05W100
 70
     0
  3
ISO long-dash double-dot ____ .. ____ .. ____ .
 72
    65
 73
     6
 40
1.2999999999999989
 49
0.9399999999999998
 49
-0.12
 49
0.0
 49
-0.12
 49
0.0
 49
-0.12
  0
LTYPE
  2
ACAD_ISO06W100
 70
     0
  3
ISO long-dash triple-dot ____ ... ____ ... ____
 72
    65
 73
     8
 40
1.419999999999999
 49
0.9399999999999998
 49
-0.12
 49
0.0
 49
-0.12
 49
0.0
 49
-0.12
 49
0.0
 49
-0.12
  0
LTYPE
  2
ACAD_ISO07W100
 70
     0
  3
ISO dot . . . . . . . . . . . . . . . . . . . .
 72
    65
 73
     2
 40
0.12
 49
0.0
 49
-0.12
  0
LTYPE
  2
ACAD_ISO08W100
 70
     0
  3
ISO long-dash short-dash ____ __ ____ __ ____ _
 72
    65
 73
     4
 40
0.95
 49
0.47
 49
-0.12
 49
0.24
 49
-0.12
  0
LTYPE
  2
ACAD_ISO09W100
 70
     0
  3
ISO long-dash double-short-dash ____ __ __ ____
 72
    65
 73
     6
 40
1.3100000000000001
 49
0.47
 49
-0.12
 49
0.24
 49
-0.12
 49
0.24
 49
-0.12
  0
LTYPE
  2
ACAD_ISO10W100
 70
     0
  3
ISO dash dot __ . __ . __ . __ . __ . __ . __ .
 72
    65
 73
     4
 40
0.71
 49
0.47
 49
-0.12
 49
0.0
 49
-0.12
  0
LTYPE
  2
ACAD_ISO11W100
 70
     0
  3
ISO double-dash dot __ __ . __ __ . __ __ . __ 
 72
    65
 73
     6
 40
1.2999999999999989
 49
0.47
 49
-0.12
 49
0.47
 49
-0.12
 49
0.0
 49
-0.12
  0
LTYPE
  2
ACAD_ISO12W100
 70
     0
  3
ISO dash double-dot __ . . __ . . __ . . __ . .
 72
    65
 73
     6
 40
0.8299999999999998
 49
0.47
 49
-0.12
 49
0.0
 49
-0.12
 49
0.0
 49
-0.12
  0
LTYPE
  2
ACAD_ISO13W100
 70
     0
  3
ISO double-dash double-dot __ __ . . __ __ . . 
 72
    65
 73
     8
 40
1.419999999999999
 49
0.47
 49
-0.12
 49
0.47
 49
-0.12
 49
0.0
 49
-0.12
 49
0.0
 49
-0.12
  0
LTYPE
  2
ACAD_ISO14W100
 70
     0
  3
ISO dash triple-dot __ . . . __ . . . __ . . . 
 72
    65
 73
     8
 40
0.95
 49
0.47
 49
-0.12
 49
0.0
 49
-0.12
 49
0.0
 49
-0.12
 49
0.0
 49
-0.12
  0
LTYPE
  2
ACAD_ISO15W100
 70
     0
  3
ISO double-dash triple-dot __ __ . . . __ __ . 
 72
    65
 73
    10
 40
1.5399999999999989
 49
0.47
 49
-0.12
 49
0.47
 49
-0.12
 49
0.0
 49
-0.12
 49
0.0
 49
-0.12
 49
0.0
 49
-0.12
  0
LTYPE
  2
FENCELINE1
 70
     0
  3
Fenceline circle ----0-----0----0-----0----0---
 72
    65
 73
     4
 40
1.45
 49
0.25
 49
-0.1
 49
-0.1
 49
1.0
  0
LTYPE
  2
FENCELINE2
 70
     0
  3
Fenceline square ----[]-----[]----[]-----[]----
 72
    65
 73
     4
 40
1.45
 49
0.25
 49
-0.1
 49
-0.1
 49
1.0
  0
LTYPE
  2
TRACKS
 70
     0
  3
Tracks -|-|-|-|-|-|-|-|-|-|-|-|-|-|-|-|-|-|-|-|
 72
    65
 73
     2
 40
0.3
 49
0.15
 49
0.15
  0
LTYPE
  2
BATTING
 70
     0
  3
Batting SSSSSSSSSSSSSSSSSSSSSSSSSSSSSSSSSSSSSSS
 72
    65
 73
     4
 40
0.4001000000000001
 49
0.0001
 49
-0.1
 49
-0.2
 49
-0.1
  0
LTYPE
  2
HOT_WATER_SUPPLY
 70
     0
  3
Hot water supply ---- HW ---- HW ---- HW ----
 72
    65
 73
     3
 40
0.9
 49
0.5
 49
-0.2
 49
-0.2
  0
LTYPE
  2
GAS_LINE
 70
     0
  3
Gas line ----GAS----GAS----GAS----GAS----GAS---
 72
    65
 73
     3
 40
0.95
 49
0.5
 49
-0.2
 49
-0.25
  0
LTYPE
  2
ZIGZAG
 70
     0
  3
Zig zag /\/\/\/\/\/\/\/\/\/\/\/\/\/\/\/\/\/\/\/
 72
    65
 73
     4
 40
0.8001000000000001
 49
0.0001
 49
-0.2
 49
-0.4
 49
-0.2
  0
ENDTAB
  0
TABLE
  2
LAYER
 70
     1
  0
LAYER
  2
0
 70
     0
 62
     7
  6
CONTINUOUS
  0
ENDTAB
  0
TABLE
  2
STYLE
 70
     5
  0
STYLE
  2
STANDARD
 70
     0
 40
0.0
 41
1.0
 50
0.0
 71
     0
 42
0.2
  3
txt
  4

  0
STYLE
  2
ANNOTATIVE
 70
     0
 40
0.0
 41
1.0
 50
0.0
 71
     0
 42
0.2
  3
txt
  4

  0
STYLE
  2

 70
     1
 40
0.0
 41
1.0
 50
0.0
 71
     0
 42
0.2
  3
ltypeshp.shx
  4

  0
STYLE
  2
NOTE_TEXT__ANSI__-_3DA
 70
     0
 40
0.0
 41
1.0
 50
0.0
 71
     0
 42
0.2
  3
txt.shx
  4
bigfont.shx
  0
STYLE
  2
SKETCH_TEXT__ANSI__-_3DA
 70
     0
 40
0.0
 41
1.0
 50
0.0
 71
     0
 42
0.2
  3
txt.shx
  4
bigfont.shx
  0
ENDTAB
  0
TABLE
  2
VIEW
 70
     0
  0
ENDTAB
  0
TABLE
  2
UCS
 70
     0
  0
ENDTAB
  0
TABLE
  2
APPID
 70
     3
  0
APPID
  2
ACAD
 70
     0
  0
APPID
  2
ACADANNOTATIVE
 70
     0
  0
APPID
  2
ACAD_MLEADERVER
 70
     0
  0
ENDTAB
  0
TABLE
  2
DIMSTYLE
 70
     2
  0
DIMSTYLE
  2
STANDARD
 70
     0
  3

  4

  5

  6

  7

 40
1.0
 41
0.18
 42
0.0625
 43
0.38
 44
0.18
 45
0.0
 46
0.0
 47
0.0
 48
0.0
140
0.18
141
0.09
142
0.0
143
25.3999999999999986
144
1.0
145
0.0
146
1.0
147
0.09
 71
     0
 72
     0
 73
     1
 74
     1
 75
     0
 76
     0
 77
     0
 78
     0
170
     0
171
     2
172
     0
173
     0
174
     0
175
     0
176
     0
177
     0
178
     0
  0
DIMSTYLE
  2
ANNOTATIVE
 70
     0
  3

  4

  5

  6

  7

 40
1.0
 41
0.18
 42
0.0625
 43
0.38
 44
0.18
 45
0.0
 46
0.0
 47
0.0
 48
0.0
140
0.18
141
0.09
142
0.0
143
25.3999999999999986
144
1.0
145
0.0
146
1.0
147
0.09
 71
     0
 72
     0
 73
     1
 74
     1
 75
     0
 76
     0
 77
     0
 78
     0
170
     0
171
     2
172
     0
173
     0
174
     0
175
     0
176
     0
177
     0
178
     0
  0
ENDTAB
  0
ENDSEC
  0
SECTION
  2
BLOCKS
  0
BLOCK
  8
0
  2
$MODEL_SPACE
 70
     0
 10
0.0
 20
0.0
 30
0.0
  3
$MODEL_SPACE
  1

  0
ENDBLK
  5
72
  8
0
  0
BLOCK
 67
     1
  8
0
  2
$PAPER_SPACE
 70
     0
 10
0.0
 20
0.0
 30
0.0
  3
$PAPER_SPACE
  1

  0
ENDBLK
  5
6E
 67
     1
  8
0
  0
ENDSEC
  0
SECTION
  2
ENTITIES
  0
POLYLINE
  5
B8
 67
     1
  8
0
 66
     1
 10
0.0
 20
0.0
 30
0.0
 70
     1
  0
VERTEX
  5
B9
 67
     1
  8
0
 10
-0.3425000529823929
 20
3.7229755969012901
 30
0.0
  0
VERTEX
  5
BA
 67
     1
  8
0
 10
28.1705007436070503
 20
17.2306296937463195
 30
0.0
 42
-0.9999999999999998
  0
VERTEX
  5
BC
 67
     1
  8
0
 10
28.8555008495591103
 20
15.7846784999535608
 30
0.0
  0
VERTEX
  5
BD
 67
     1
  8
0
 10
0.3425000529734934
 20
2.2770244031026938
 30
0.0
 42
-0.9999999999999998
  0
SEQEND
  5
BB
 67
     1
  8
0
  0
POLYLINE
  5
BF
 67
     1
  8
0
 66
     1
 10
0.0
 20
0.0
 30
0.0
 70
     1
  0
VERTEX
  5
C0
 67
     1
  8
0
 10
-5.2695157721933468
 20
60.0682613886773993
 30
0.0
 42
-0.9999999999999998
  0
VERTEX
  5
C1
 67
     1
  8
0
 10
-4.8464211695847981
 20
61.6113073883946214
 30
0.0
  0
VERTEX
  5
C3
 67
     1
  8
0
 10
25.5716841126094394
 20
53.2708326593548591
 30
0.0
 42
-0.9999999999999998
  0
VERTEX
  5
C4
 67
     1
  8
0
 10
25.1485895100043599
 20
51.7277866596300413
 30
0.0
  0
SEQEND
  5
C2
 67
     1
  8
0
  0
POLYLINE
  5
C5
 67
     1
  8
0
 66
     1
 10
0.0
 20
0.0
 30
0.0
 70
     1
  0
VERTEX
  5
C6
 67
     1
  8
0
 10
52.2732248660478405
 20
21.5148729039320301
 30
0.0
  0
VERTEX
  5
C7
 67
     1
  8
0
 10
37.0283061207577191
 20
14.4038614738630404
 30
0.0
 42
-1.0000158446448579
  0
VERTEX
  5
C9
 67
     1
  8
0
 10
36.26737586507938
 20
16.0351555312105596
 30
0.0
  0
VERTEX
  5
CA
 67
     1
  8
0
 10
51.8000733981372434
 20
23.280207780857161
 30
0.0
  0
VERTEX
  5
CB
 67
     1
  8
0
 10
56.0641800501185088
 20
23.6537429262207617
 30
0.0
 42
-0.9999999999999998
  0
VERTEX
  5
CC
 67
     1
  8
0
 10
56.2212486741612167
 20
21.8607192364522085
 30
0.0
  0
SEQEND
  5
C8
 67
     1
  8
0
  0
POLYLINE
  5
CD
 67
     1
  8
0
 66
     1
 10
0.0
 20
0.0
 30
0.0
 70
     1
  0
VERTEX
  5
CE
 67
     1
  8
0
 10
49.4700643064439305
 20
49.8785276189113986
 30
0.0
  0
VERTEX
  5
CF
 67
     1
  8
0
 10
32.9295332261679903
 20
54.3085460560738582
 30
0.0
 42
-0.9999944087085711
  0
VERTEX
  5
D1
 67
     1
  8
0
 10
33.3952482308544205
 20
56.0472939121993505
 30
0.0
  0
VERTEX
  5
D2
 67
     1
  8
0
 10
49.6290785262696872
 20
51.6992401215233315
 30
0.0
  0
VERTEX
  5
D3
 67
     1
  8
0
 10
53.57710233438317
 20
52.0450864540421918
 30
0.0
 42
-0.9999999999999998
  0
VERTEX
  5
D4
 67
     1
  8
0
 10
53.7341709584253024
 20
50.2520627642735818
 30
0.0
  0
SEQEND
  5
D0
 67
     1
  8
0
  0
POLYLINE
  5
D5
 67
     1
  8
0
 66
     1
 10
0.0
 20
0.0
 30
0.0
 70
     1
  0
VERTEX
  5
D6
 67
     1
  8
0
 10
51.3040168728085533
 20
26.3886614335443888
 30
0.0
  0
VERTEX
  5
D7
 67
     1
  8
0
 10
35.2193700367607931
 20
18.7907725907868617
 30
0.0
 42
-0.9999999999999998
  0
VERTEX
  5
D9
 67
     1
  8
0
 10
34.5359863030542797
 20
20.23748841378222
 30
0.0
  0
VERTEX
  5
DA
 67
     1
  8
0
 10
50.6206331390948705
 20
27.8353772565391111
 30
0.0
 42
-0.9999999999999998
  0
SEQEND
  5
D8
 67
     1
  8
0
  0
POLYLINE
  5
DB
 67
     1
  8
0
 66
     1
 10
0.0
 20
0.0
 30
0.0
 70
     1
  0
VERTEX
  5
DC
 67
     1
  8
0
 10
48.505483062855447
 20
45.3502890132548373
 30
0.0
  0
VERTEX
  5
DD
 67
     1
  8
0
 10
31.9398779668700712
 20
49.873454708430188
 30
0.0
 42
-0.9999999999999998
  0
VERTEX
  5
DF
 67
     1
  8
0
 10
32.3613231290404926
 20
51.4169520279234789
 30
0.0
  0
VERTEX
  5
E0
 67
     1
  8
0
 10
48.9269282250269484
 20
46.8937863327481708
 30
0.0
 42
-0.9999999999999998
  0
SEQEND
  5
DE
 67
     1
  8
0
  0
POLYLINE
  5
E1
 67
     1
  8
0
 66
     1
 10
0.0
 20
0.0
 30
0.0
 70
     1
  0
VERTEX
  5
E2
 67
     1
  8
0
 10
64.8485597802254858
 20
42.5464547837678921
 30
0.0
 42
-0.9999999999999998
  0
VERTEX
  5
E3
 67
     1
  8
0
 10
64.427114618063996
 20
41.0029574642753971
 30
0.0
  0
VERTEX
  5
E5
 67
     1
  8
0
 10
56.020414037527388
 20
43.2983701253363265
 30
0.0
 42
-0.9999999999999998
  0
VERTEX
  5
E6
 67
     1
  8
0
 10
56.441859199699131
 20
44.8418674448296883
 30
0.0
  0
SEQEND
  5
E4
 67
     1
  8
0
  0
POLYLINE
  5
E7
 67
     1
  8
0
 66
     1
 10
0.0
 20
0.0
 30
0.0
 70
     1
  0
VERTEX
  5
E8
 67
     1
  8
0
 10
57.1065866346912685
 20
30.8991407448543711
 30
0.0
  0
VERTEX
  5
E9
 67
     1
  8
0
 10
64.986157021087692
 20
34.6212056764092608
 30
0.0
 42
-1.0000000074505799
  0
VERTEX
  5
EB
 67
     1
  8
0
 10
65.6695407547900203
 20
33.1744898534137675
 30
0.0
  0
VERTEX
  5
EC
 67
     1
  8
0
 10
57.7899703684038712
 20
29.4524249218591407
 30
0.0
 42
-0.9999999925494194
  0
SEQEND
  5
EA
 67
     1
  8
0
  0
POLYLINE
  5
ED
 67
     1
  8
0
 66
     1
 10
0.0
 20
0.0
 30
0.0
 70
     1
  0
VERTEX
  5
EE
 67
     1
  8
0
 10
-5.5789130038876467
 20
63.7942076475725273
 30
0.0
 42
0.6370702608069753
  0
VERTEX
  5
EF
 67
     1
  8
0
 10
-6.9863312999516047
 20
58.5416510591821435
 30
0.0
  0
VERTEX
  5
F1
 67
     1
  8
0
 10
-4.0716577638139198
 20
56.0959495700104611
 30
0.0
 42
0.0565533153731014
  0
VERTEX
  5
F2
 67
     1
  8
0
 10
5.3272101895736501
 20
49.8687534742972005
 30
0.0
  0
VERTEX
  5
F3
 67
     1
  8
0
 10
19.1238978855621795
 20
42.8229899823094229
 30
0.0
 42
-0.2583427217244742
  0
VERTEX
  5
F4
 67
     1
  8
0
 10
21.8307720041275708
 20
38.8063765219358388
 30
0.0
  0
VERTEX
  5
F5
 67
     1
  8
0
 10
22.6566105161943696
 20
29.3789811710805502
 30
0.0
 42
-0.258406461331244
  0
VERTEX
  5
F6
 67
     1
  8
0
 10
20.6883606501085104
 20
24.9521908909130907
 30
0.0
  0
VERTEX
  5
F7
 67
     1
  8
0
 10
8.3424431719389958
 20
15.6314044834438999
 30
0.0
 42
0.0565579054752457
  0
VERTEX
  5
F8
 67
     1
  8
0
 10
0.1669760717984436
 20
7.8661658140239368
 30
0.0
  0
VERTEX
  5
F9
 67
     1
  8
0
 10
-2.298133329353246
 20
4.9283628290614523
 30
0.0
 42
0.6370702608081272
  0
VERTEX
  5
FA
 67
     1
  8
0
 10
-0.0000000000037931
 20
0.0000000000008976
 30
0.0
  0
VERTEX
  5
FB
 67
     1
  8
0
 10
25.635333005054509
 20
0.0
 30
0.0
 42
-0.0262389371399117
  0
VERTEX
  5
FC
 67
     1
  8
0
 10
27.7301173389335389
 20
-0.1100055657488275
 30
0.0
 42
-0.4316342193511386
  0
VERTEX
  5
FD
 67
     1
  8
0
 10
32.1392982538207832
 20
-5.8990361816946271
 30
0.0
  0
VERTEX
  5
FE
 67
     1
  8
0
 10
30.9772413421084885
 20
-12.9193167815222107
 30
0.0
 42
0.6008914208924691
  0
VERTEX
  5
FF
 67
     1
  8
0
 10
33.0816761284134486
 20
-14.5280616337175807
 30
0.0
  0
VERTEX
  5
100
 67
     1
  8
0
 10
43.0490317339826518
 20
-9.9633194181798324
 30
0.0
 42
-0.2072778773155333
  0
VERTEX
  5
101
 67
     1
  8
0
 10
50.996898484551572
 20
-9.7988220044161611
 30
0.0
 42
0.5614106707552345
  0
VERTEX
  5
102
 67
     1
  8
0
 10
53.0587844218381406
 20
-8.2794636329389455
 30
0.0
  0
VERTEX
  5
103
 67
     1
  8
0
 10
52.2839948558013035
 20
0.5651802604955593
 30
0.0
 42
-0.198912367379658
  0
VERTEX
  5
104
 67
     1
  8
0
 10
56.8853889326371416
 20
15.1645551649365693
 30
0.0
  0
VERTEX
  5
105
 67
     1
  8
0
 10
70.1531521089202812
 20
30.9800036045661891
 30
0.0
 42
0.2914734195862722
  0
VERTEX
  5
106
 67
     1
  8
0
 10
70.3633707711557861
 20
32.5781356192064067
 30
0.0
  0
VERTEX
  5
107
 67
     1
  8
0
 10
68.9497730547342087
 20
35.6087325295058577
 30
0.0
  0
VERTEX
  5
108
 67
     1
  8
0
 10
68.502062087358297
 20
40.7195964946699007
 30
0.0
  0
VERTEX
  5
109
 67
     1
  8
0
 10
69.3676678021014936
 20
43.9515075333049907
 30
0.0
 42
0.2914434884034583
  0
VERTEX
  5
10A
 67
     1
  8
0
 10
68.8829176447407292
 20
45.4886428774464591
 30
0.0
  0
VERTEX
  5
10B
 67
     1
  8
0
 10
53.0647198217575777
 20
58.7616868366196172
 30
0.0
 42
-0.1988836883351863
  0
VERTEX
  5
10C
 67
     1
  8
0
 10
45.9967705288383328
 20
72.3372622398383101
 30
0.0
  0
VERTEX
  5
10D
 67
     1
  8
0
 10
45.2230267830690309
 20
81.1699675266855678
 30
0.0
 42
0.5612214440840509
  0
VERTEX
  5
10E
 67
     1
  8
0
 10
42.9291108642306014
 20
82.3081547422634543
 30
0.0
 42
-0.2071278093445499
  0
VERTEX
  5
10F
 67
     1
  8
0
 10
35.0785631216541702
 20
81.0913564362648884
 30
0.0
  0
VERTEX
  5
110
 67
     1
  8
0
 10
25.2484393544932608
 20
83.6507535567398719
 30
0.0
 42
0.6008133423687707
  0
VERTEX
  5
111
 67
     1
  8
0
 10
23.4556472665561593
 20
81.7009468463069197
 30
0.0
  0
VERTEX
  5
112
 67
     1
  8
0
 10
25.6756211912566208
 20
75.3964137831685974
 30
0.0
 42
-0.4165667933557088
  0
VERTEX
  5
113
 67
     1
  8
0
 10
22.58221797805259
 20
69.0064028742914246
 30
0.0
 42
-0.0390209394697982
  0
VERTEX
  5
114
 67
     1
  8
0
 10
19.5641512656634191
 20
68.2276082559663735
 30
0.0
  0
SEQEND
  5
F0
 67
     1
  8
0
  0
CIRCLE
  5
115
 67
     1
  8
0
 10
33.6560193148739799
 20
66.6592791917591256
 30
0.0
 40
1.55
  0
CIRCLE
  5
116
 67
     1
  8
0
 10
25.4651318672315199
 20
60.9226109234998532
 30
0.0
 40
1.5500000000000009
  0
CIRCLE
  5
117
 67
     1
  8
0
 10
48.2088387377023366
 20
-0.2284740663427964
 30
0.0
 40
1.55
  0
CIRCLE
  5
118
 67
     1
  8
0
 10
39.1460155699910217
 20
3.9982547197038301
 30
0.0
 40
1.55
  0
CIRCLE
  5
119
 67
     1
  8
0
 10
30.0831924022797104
 20
8.2249835057504619
 30
0.0
 40
1.55
  0
CIRCLE
  5
11A
 67
     1
  8
0
 10
41.8469067625164399
 20
72.3959474600184336
 30
0.0
 40
1.55
  0
ENDSEC
  0
EOF
