  0
SECTION
  2
HEADER
  9
$ACADVER
  1
AC1009
  9
$INSBASE
 10
0
 20
0
 30
0
  9
$EXTMIN
 10
0
 20
0
  9
$EXTMAX
 10
84.100000000000009
 20
59.400000000000006
  9
$LIMMIN
 10
0
 20
0
  9
$LIMMAX
 10
84.100000000000009
 20
59.400000000000006
  9
$LTSCALE
 40
0.1
  0
ENDSEC
  0
SECTION
  2
TABLES
  0
TABLE
  2
LTYPE
 70
     9
  0
LTYPE
  2
CONTINUOUS
 70
    64
  3
実線
 72
    65
 73
     0
 40
0.0
  0
LTYPE
  2
DASHED1
 70
    64
  3
--  --  --  --  --  --  --  --  
 72
    65
 73
     2
 40
2.5
 49
1.25
 49
-1.25
  0
LTYPE
  2
DASHED2
 70
    64
  3
----    ----    ----    ----    
 72
    65
 73
     2
 40
5.0
 49
2.5
 49
-2.5
  0
LTYPE
  2
DASHED3
 70
    64
  3
------  ------  ------  ------  
 72
    65
 73
     2
 40
5.0
 49
3.75
 49
-1.25
  0
LTYPE
  2
CENTER1
 70
    64
  3
----- - ----- - ----- - ----- - 
 72
    65
 73
     4
 40
10.0
 49
6.25
 49
-1.25
 49
1.25
 49
-1.25
  0
LTYPE
  2
CENTER2
 70
    64
  3
----------  --  ----------  --  
 72
    65
 73
     4
 40
20.0
 49
12.5
 49
-2.5
 49
2.5
 49
-2.5
  0
LTYPE
  2
PHANTOM1
 70
    64
  3
--- - - --- - - --- - - --- - - 
 72
    65
 73
     6
 40
10.0
 49
3.25
 49
-1.25
 49
1.25
 49
-1.25
 49
1.25
 49
-1.25
  0
LTYPE
  2
PHANTOM2
 70
    64
  3
--------  -  -  --------  -  -  
 72
    65
 73
     6
 40
20.0
 49
10.0
 49
-2.5
 49
1.25
 49
-2.5
 49
1.25
 49
-2.5
  0
LTYPE
  2
DOT
 70
    64
  3
-   -   -   -   -   -   -   -   
 72
    65
 73
     2
 40
2.5
 49
0.625
 49
-1.875
  0
LTYPE
  2
DUMMY
 70
    64
  3
ダミー
 72
    65
 73
     0
 40
0.0
  0
LTYPE
  2
RAND1
 70
    64
  3
ランダム線1
 72
    65
 73
     4
 40
10.0
 49
1.0
 49
-2.0
 49
3.0
 49
-4.0
  0
LTYPE
  2
RAND2
 70
    64
  3
ランダム線2
 72
    65
 73
     4
 40
14.0
 49
2.0
 49
-3.0
 49
4.0
 49
-5.0
  0
LTYPE
  2
RAND3
 70
    64
  3
ランダム線3
 72
    65
 73
     4
 40
18.0
 49
3.0
 49
-4.0
 49
5.0
 49
-6.0
  0
LTYPE
  2
RAND4
 70
    64
  3
ランダム線4
 72
    65
 73
     4
 40
22.0
 49
4.0
 49
-5.0
 49
6.0
 49
-7.0
  0
LTYPE
  2
RAND5
 70
    64
  3
ランダム線5
 72
    65
 73
     4
 40
26.0
 49
5.0
 49
-6.0
 49
7.0
 49
-8.0
  0
LTYPE
  2
LONG1
 70
    64
  3
----------  --  ----------  --  
 72
    65
 73
     4
 40
40.0
 49
32.5
 49
-2.5
 49
2.5
 49
-2.5
  0
LTYPE
  2
LONG2
 70
    64
  3
--------  -  -  --------  -  -  
 72
    65
 73
     6
 40
40.0
 49
30.0
 49
-2.5
 49
1.25
 49
-2.5
 49
1.25
 49
-2.5
  0
LTYPE
  2
LONG3
 70
    64
  3
+++++++++++++++..+++++++++++++++
 72
    65
 73
     2
 40
40.0
 49
37.5
 49
-2.5
  0
LTYPE
  2
LONG4
 70
    64
  3
+++++++++++++++..+++++++++++++++
 72
    65
 73
     2
 40
80.0
 49
75.0
 49
-5.0
  0
LTYPE
  2
LONG5
 70
    64
  3
----------  --  ----------  --  
 72
    65
 73
     4
 40
60.0
 49
37.5
 49
-7.5
 49
7.5
 49
-7.5
  0
LTYPE
  2
dashed
 70
   64
  3
-------   -------------   ------
 72
   65
 73
    2
 40
7.5
 49
6
 49
-1.5
  0
LTYPE
  2
dashed_spaced
 70
   64
  3
----        --------        ----
 72
   65
 73
    2
 40
12
 49
6
 49
-6
  0
LTYPE
  2
long_dashed_dotted
 70
   64
  3
------------- --- --------------
 72
   65
 73
    4
 40
15.25
 49
12
 49
-1.5
 49
0.25
 49
-1.5
  0
LTYPE
  2
long_dashed_double-dotted
 70
   64
  3
----------- --- --- ------------
 72
   65
 73
    6
 40
17
 49
12
 49
-1.5
 49
0.25
 49
-1.5
 49
0.25
 49
-1.5
  0
LTYPE
  2
long_dashed_triplicate-dotted
 70
   64
  3
--------- --- --- --- ----------
 72
   65
 73
    8
 40
18.75
 49
12
 49
-1.5
 49
0.25
 49
-1.5
 49
0.25
 49
-1.5
 49
0.25
 49
-1.5
  0
LTYPE
  2
dotted
 70
   64
  3
   -       -       -       -    
 72
   65
 73
    2
 40
1.75
 49
0.25
 49
-1.5
  0
LTYPE
  2
chain
 70
   64
  3
-------------- -- --------------
 72
   65
 73
    4
 40
18.5
 49
12
 49
-1.5
 49
3.5
 49
-1.5
  0
LTYPE
  2
chain_double_dash
 70
   64
  3
------------ -- -- -------------
 72
   65
 73
    6
 40
23.5
 49
12
 49
-1.5
 49
3.5
 49
-1.5
 49
3.5
 49
-1.5
  0
LTYPE
  2
dashed_dotted
 70
   64
  3
-----------     -     ----------
 72
   65
 73
    4
 40
9.25
 49
6
 49
-1.5
 49
0.25
 49
-1.5
  0
LTYPE
  2
double-dashed_dotted
 70
   64
  3
------   -----------   -   -----
 72
   65
 73
    6
 40
16.75
 49
6
 49
-1.5
 49
6
 49
-1.5
 49
0.25
 49
-1.5
  0
LTYPE
  2
dashed_double-dotted
 70
   64
  3
---------    -    -    ---------
 72
   65
 73
    6
 40
11
 49
6
 49
-1.5
 49
0.25
 49
-1.5
 49
0.25
 49
-1.5
  0
LTYPE
  2
double-dashed_double-dotted
 70
   64
  3
-----   ---------   -   -   ----
 72
   65
 73
    8
 40
18.5
 49
6
 49
-1.5
 49
6
 49
-1.5
 49
0.25
 49
-1.5
 49
0.25
 49
-1.5
  0
LTYPE
  2
dashed_triplicate-dotted
 70
   64
  3
-------    -    -    -    ------
 72
   65
 73
    8
 40
12.75
 49
6
 49
-1.5
 49
0.25
 49
-1.5
 49
0.25
 49
-1.5
 49
0.25
 49
-1.5
  0
LTYPE
  2
double-dashed_triplicate-dotted
 70
   64
  3
-----  ---------  -  -  -  -----
 72
   65
 73
   10
 40
20.25
 49
6
 49
-1.5
 49
6
 49
-1.5
 49
0.25
 49
-1.5
 49
0.25
 49
-1.5
 49
0.25
 49
-1.5
  0
LTYPE
  2
undefined
 70
   64
  3
--------------------------------
 72
   65
 73
    0
 40
0
  0
LTYPE
  2
BY_STANDARD
 70
   64
  3
---------  ----  ----  ---------
 72
   65
 73
    6
 40
1.2403
 49
0.6613999999999999
 49
-0.0826999999999999
 49
0.1653999999999999
 49
-0.0826999999999999
 49
0.1653999999999999
 49
-0.0826999999999999
  0
LTYPE
  2
CHAIN
 70
   64
  3
-----------   -----   ----------
 72
   65
 73
    4
 40
0.7087000000000001
 49
0.4724000000000001
 49
-0.0591
 49
0.1181
 49
-0.0591
  0
LTYPE
  2
DASH_DOT
 70
   64
  3
-----------     -     ----------
 72
   65
 73
    4
 40
0.37
 49
0.2399999999999999
 49
-0.0599999999999999
 49
0.01
 49
-0.0599999999999999
  0
LTYPE
  2
DOUBLE_DASH_DOT
 70
   64
  3
---------    -    -    ---------
 72
   65
 73
    6
 40
0.4397999999999999
 49
0.2399999999999999
 49
-0.0599999999999999
 49
0.0097999999999999
 49
-0.0599999999999999
 49
0.01
 49
-0.0599999999999999
  0
LTYPE
  2
DASH_TRIPLE_DOT
 70
   64
  3
-------    -    -    -    ------
 72
   65
 73
    8
 40
0.51
 49
0.2399999999999999
 49
-0.0599999999999999
 49
0.01
 49
-0.0599999999999999
 49
0.01
 49
-0.0599999999999999
 49
0.01
 49
-0.0599999999999999
  0
LTYPE
  2
DASHED
 70
   64
  3
-------   -------------   ------
 72
   65
 73
    2
 40
0.2066999999999999
 49
0.1653999999999999
 49
-0.0413
  0
LTYPE
  2
DOTTED
 70
   64
  3
-              --              -
 72
   65
 73
    2
 40
0.0482
 49
0.0068999999999999
 49
-0.0413
  0
LTYPE
  2
DOUBLE_DASH_DOUBLE_DOT
 70
   64
  3
-----   ---------   -   -   ----
 72
   65
 73
    8
 40
0.7400000000000002
 49
0.2399999999999999
 49
-0.0599999999999999
 49
0.2399999999999999
 49
-0.0599999999999999
 49
0.01
 49
-0.0599999999999999
 49
0.01
 49
-0.0599999999999999
  0
LTYPE
  2
LONG_DASH_DOTTED
 70
   64
  3
-----------   -----   ----------
 72
   65
 73
    4
 40
0.3542999999999999
 49
0.2361999999999999
 49
-0.0294999999999999
 49
0.0591
 49
-0.0294999999999999
  0
LTYPE
  2
LONG_DASH_DOUBLE_DOT
 70
   64
  3
-----------   -   -   ----------
 72
   65
 73
    6
 40
0.6800000000000001
 49
0.4799999999999999
 49
-0.0599999999999999
 49
0.01
 49
-0.0599999999999999
 49
0.01
 49
-0.0599999999999999
  0
LTYPE
  2
LONG_DASH_TRIPLE_DOT
 70
   64
  3
---------   -   -   -   --------
 72
   65
 73
    8
 40
0.3689
 49
0.2361999999999999
 49
-0.0294999999999999
 49
0.0048999999999999
 49
-0.0294999999999999
 49
0.0048999999999999
 49
-0.0294999999999999
 49
0.0048999999999999
 49
-0.0294999999999999
  0
LTYPE
  2
BORDER
 70
   64
  3
----     --------     -     ----
 72
   65
 73
    6
 40
1.76
 49
0.5
 49
-0.25
 49
0.5
 49
-0.25
 49
0.01
 49
-0.25
  0
LTYPE
  2
BORDER2
 70
   64
  3
----     --------     -     ----
 72
   65
 73
    6
 40
0.885
 49
0.25
 49
-0.125
 49
0.25
 49
-0.125
 49
0.01
 49
-0.125
  0
LTYPE
  2
BORDERX2
 70
   64
  3
----     --------     -     ----
 72
   65
 73
    6
 40
3.5099999999999998
 49
1
 49
-0.5
 49
1
 49
-0.5
 49
0.01
 49
-0.5
  0
LTYPE
  2
CENTER
 70
   64
  3
----------    ----    ----------
 72
   65
 73
    4
 40
2
 49
1.25
 49
-0.25
 49
0.25
 49
-0.25
  0
LTYPE
  2
CENTER2_32
 70
   64
  3
----------    ----    ----------
 72
   65
 73
    4
 40
1.125
 49
0.75
 49
-0.125
 49
0.125
 49
-0.125
  0
ENDTAB
  0
TABLE
  2
STYLE
  5
3
100
AcDbSymbolTable
 70
     1
  0
STYLE
  5
10
100
AcDbSymbolTableRecord
100
AcDbTextStyleTableRecord
  2
STANDARD
 70
     0
 40
0.0
 41
1.0
 50
0.0
 71
     0
 42
0.2
  3
txt
  4
bigfont.shx
  0
STYLE
  5
26
100
AcDbSymbolTableRecord
100
AcDbTextStyleTableRecord
  2
TATEGAKI
 70
    68
 40
0.0
 41
1.0
 50
0.0
 71
     0
 42
1.0
  3
txt
  4
bigfont.shx
  0
ENDTAB
  0
TABLE
  2
LAYER
 70
    2
  0
LAYER
  2
_0-0_0
 70
   64
 62
    7
  6
CONTINUOUS
  0
LAYER
  2
ADD_LINE
 70
   64
 62
    7
  6
CONTINUOUS
  0
ENDTAB
  0
ENDSEC
  0
SECTION
  2
BLOCKS
  0
ENDSEC
  0
SECTION
  2
ENTITIES
  0
ARC
  8
_0-0_0
  6
CONTINUOUS
 62
    7
 10
19.581289861204667
 20
39.11721235180206
 40
0.8000000000000042
 50
90
 51
270
  0
LINE
  8
_0-0_0
  6
CONTINUOUS
 62
    7
 10
19.581289861204667
 20
39.917212351802064
 11
29.581289861202794
 21
39.917212351804778
  0
ARC
  8
_0-0_0
  6
CONTINUOUS
 62
    7
 10
29.581289861203732
 20
39.117212351803431
 40
0.8000000000013471
 50
270.00000000006736
 51
90.000000000067331
  0
LINE
  8
_0-0_0
  6
CONTINUOUS
 62
    7
 10
29.581289861204677
 20
38.317212351802084
 11
19.581289861204667
 21
38.317212351802048
  0
ARC
  8
_0-0_0
  6
CONTINUOUS
 62
    7
 10
37.581289861204688
 20
39.117212351802081
 40
0.7999999999999971
 50
90
 51
270
  0
LINE
  8
_0-0_0
  6
CONTINUOUS
 62
    7
 10
37.581289861204688
 20
39.917212351802078
 11
47.581289861202798
 21
39.917212351806199
  0
ARC
  8
_0-0_0
  6
CONTINUOUS
 62
    7
 10
47.581289861203743
 20
39.117212351804142
 40
0.8000000000020577
 50
270.00000000006747
 51
90.000000000067431
  0
LINE
  8
_0-0_0
  6
CONTINUOUS
 62
    7
 10
47.581289861204681
 20
38.317212351802084
 11
37.581289861204688
 21
38.317212351802084
  0
ARC
  8
_0-0_0
  6
CONTINUOUS
 62
    7
 10
11.58128986120466
 20
39.117212351802053
 40
0.7999999999999971
 50
270
 51
90
  0
LINE
  8
_0-0_0
  6
CONTINUOUS
 62
    7
 10
11.58128986120466
 20
38.317212351802048
 11
1.5812898612029187
 21
38.317212351802581
  0
ARC
  8
_0-0_0
  6
CONTINUOUS
 62
    7
 10
1.5812898612037884
 20
39.117212351802316
 40
0.7999999999997342
 50
89.9999999999377
 51
269.9999999999377
  0
LINE
  8
_0-0_0
  6
CONTINUOUS
 62
    7
 10
1.5812898612046582
 20
39.91721235180205
 11
11.58128986120466
 21
39.91721235180205
  0
ARC
  8
_0-0_0
  6
CONTINUOUS
 62
    7
 10
6.6247773359719933
 20
-31.987617980157552
 40
0.8000000000000003
 50
209.99999999874345
 51
29.999999998743419
  0
LINE
  8
_0-0_0
  6
CONTINUOUS
 62
    7
 10
5.9319570129356691
 20
-32.387617980142366
 11
2.9319570130496291
 21
-27.191465557369931
  0
ARC
  8
_0-0_0
  6
CONTINUOUS
 62
    7
 10
3.6247773331057207
 20
-26.791465552223215
 40
0.8000000000000003
 50
29.99999957185662
 51
210.00000042563019
  0
LINE
  8
_0-0_0
  6
CONTINUOUS
 62
    7
 10
4.3175976591222769
 20
-26.39146555740032
 11
7.3175976590083174
 21
-31.587617980172752
  0
ARC
  8
_0-0_0
  6
CONTINUOUS
 62
    7
 10
0.1252773320044639
 20
-20.730153748921499
 40
0.8000000000000044
 50
210.00000060245264
 51
29.999999395034369
  0
LINE
  8
_0-0_0
  6
CONTINUOUS
 62
    7
 10
-0.5675429868171761
 20
-21.130153756206358
 11
-3.5675429867031996
 21
-15.934001333433912
  0
ARC
  8
_0-0_0
  6
CONTINUOUS
 62
    7
 10
-2.8747226636668759
 20
-15.534001333449112
 40
0.7999999999999951
 50
29.999999998743192
 51
209.99999999874319
  0
LINE
  8
_0-0_0
  6
CONTINUOUS
 62
    7
 10
-2.1819023406305575
 20
-15.134001333464312
 11
0.8180976592554771
 21
-20.33015375623674
  0
LINE
  8
_0-0_0
  6
CONTINUOUS
 62
    7
 10
16.389357651338486
 20
-15.913864099837634
 11
13.142408468125394
 21
-25.16002000845846
  0
ARC
  8
_0-0_0
  6
CONTINUOUS
 62
    7
 10
10.311865309433172
 20
-24.166025326993488
 40
2.9999999999999987
 50
210.00000000000006
 51
340.65038427251284
  0
LINE
  8
_0-0_0
  6
CONTINUOUS
 62
    7
 10
7.7137890980798609
 20
-25.666025326993488
 11
2.3755184952685626
 21
-16.419869418373004
  0
ARC
  8
_0-0_0
  6
CONTINUOUS
 62
    7
 10
4.9735947066218786
 20
-14.919869418373004
 40
2.9999999999999991
 50
89.999999999999943
 51
210.00000000000003
  0
LINE
  8
_0-0_0
  6
CONTINUOUS
 62
    7
 10
4.9735947066218786
 20
-11.919869418373004
 11
13.558814492646157
 21
-11.919869418372656
  0
ARC
  8
_0-0_0
  6
CONTINUOUS
 62
    7
 10
13.558814492646214
 20
-14.919869418372697
 40
3.0000000000000391
 50
340.65038427251386
 51
90.000000000001037
  0
LINE
  8
_0-0_0
  6
CONTINUOUS
 62
    7
 10
39.686985015899339
 20
-17.517945629725034
 11
22.754395020205607
 21
-27.293981021817149
  0
ARC
  8
_0-0_0
  6
CONTINUOUS
 62
    7
 10
21.254395020205521
 20
-24.69590481046388
 40
3.0000000000000071
 50
160.65038427251264
 51
300.00000000000182
  0
LINE
  8
_0-0_0
  6
CONTINUOUS
 62
    7
 10
18.423851861513295
 20
-23.701910128998886
 11
21.856877482660195
 21
-13.925874736907321
  0
ARC
  8
_0-0_0
  6
CONTINUOUS
 62
    7
 10
24.687420641352425
 20
-14.919869418372322
 40
3.0000000000000155
 50
89.999999999999986
 51
160.6503842725125
  0
LINE
  8
_0-0_0
  6
CONTINUOUS
 62
    7
 10
24.687420641352428
 20
-11.919869418372304
 11
38.186985015899118
 21
-11.919869418371764
  0
ARC
  8
_0-0_0
  6
CONTINUOUS
 62
    7
 10
38.186985015899197
 20
-14.919869418371782
 40
3.0000000000000173
 50
300.00000000000296
 51
90.00000000000135
  0
ARC
  8
_0-0_0
  6
CONTINUOUS
 62
    7
 10
24.571170918000405
 20
-30.863867121685111
 40
0.7999999999999976
 50
300.00000000000273
 51
120.00000000000269
  0
LINE
  8
_0-0_0
  6
CONTINUOUS
 62
    7
 10
24.971170918000439
 20
-31.556687444712637
 11
17.176942283940633
 21
-36.056687444712907
  0
ARC
  8
_0-0_0
  6
CONTINUOUS
 62
    7
 10
16.776942278778694
 20
-35.363867124665596
 40
0.8000000000000047
 50
119.99999957311519
 51
300.00000042688873
  0
LINE
  8
_0-0_0
  6
CONTINUOUS
 62
    7
 10
16.376942283940583
 20
-34.671046798657827
 11
24.171170918000374
 21
-30.171046798657574
  0
ARC
  8
_0-0_0
  6
CONTINUOUS
 62
    7
 10
37.977904173104086
 20
-23.123486067896888
 40
0.8000000000000003
 50
300.00000042688902
 51
119.99999957311537
  0
LINE
  8
_0-0_0
  6
CONTINUOUS
 62
    7
 10
38.377904178266022
 20
-23.816306387944191
 11
30.58367554420623
 21
-28.316306387944465
  0
ARC
  8
_0-0_0
  6
CONTINUOUS
 62
    7
 10
30.183675544206199
 20
-27.623486064916918
 40
0.8000000000000071
 50
120.00000000000222
 51
300.00000000000222
  0
LINE
  8
_0-0_0
  6
CONTINUOUS
 62
    7
 10
29.783675544206165
 20
-26.930665741889381
 11
37.577904178265975
 21
-22.430665741889118
  0
ARC
  8
_0-0_0
  6
CONTINUOUS
 62
    7
 10
51.384637443689883
 20
-15.383105005170046
 40
0.8000000000000011
 50
299.99999957311513
 51
120.00000042688868
  0
LINE
  8
_0-0_0
  6
CONTINUOUS
 62
    7
 10
51.784637438528001
 20
-16.075925331177814
 11
43.99040880446821
 21
-20.575925331178087
  0
ARC
  8
_0-0_0
  6
CONTINUOUS
 62
    7
 10
43.59040880446819
 20
-19.883105008150547
 40
0.8000000000000018
 50
120.00000000000159
 51
300.00000000000159
  0
LINE
  8
_0-0_0
  6
CONTINUOUS
 62
    7
 10
43.19040880446817
 20
-19.190284685123004
 11
50.984637438527955
 21
-14.690284685122737
  0
LINE
  8
_0-0_0
  6
CONTINUOUS
 62
    7
 10
6.6233642738027987
 20
26.703883020591888
 11
18.295154467896623
 21
17.755899598127154
  0
ARC
  8
_0-0_0
  6
CONTINUOUS
 62
    7
 10
16.774117261597873
 20
15.771851761744443
 40
2.5000000000000062
 50
307.47497669148885
 51
52.525023308515564
  0
LINE
  8
_0-0_0
  6
CONTINUOUS
 62
    7
 10
18.295154467896776
 20
13.78780392536185
 11
6.6233642738036735
 21
4.8398205028961856
  0
ARC
  8
_0-0_0
  6
CONTINUOUS
 62
    7
 10
3.5812898612058692
 20
8.807916175661374
 40
5.0000000000000071
 50
180.0000000000023
 51
307.47497669148879
  0
LINE
  8
_0-0_0
  6
CONTINUOUS
 62
    7
 10
-1.418710138794137
 20
8.8079161756611679
 11
-1.4187101387946883
 21
22.73578734782626
  0
ARC
  8
_0-0_0
  6
CONTINUOUS
 62
    7
 10
3.5812898612053177
 20
22.735787347826456
 40
5.0000000000000071
 50
52.525023308515813
 51
180.00000000000225
  0
ARC
  8
_0-0_0
  6
CONTINUOUS
 62
    7
 10
10.867091966444622
 20
-0.7271482382557963
 40
2.5000000000000071
 50
127.47497669148876
 51
269.99999999999994
  0
LINE
  8
_0-0_0
  6
CONTINUOUS
 62
    7
 10
9.3460547601457229
 20
1.2568995981268019
 11
21.539215448608157
 21
10.604583020592464
  0
ARC
  8
_0-0_0
  6
CONTINUOUS
 62
    7
 10
24.581289861205949
 20
6.6364873478272788
 40
5
 50
52.525023308515792
 51
127.47497669148873
  0
LINE
  8
_0-0_0
  6
CONTINUOUS
 62
    7
 10
27.623364273803432
 20
10.604583020592706
 11
39.816524962266605
 21
1.2568995981280069
  0
ARC
  8
_0-0_0
  6
CONTINUOUS
 62
    7
 10
38.295487755967876
 20
-0.7271482382547049
 40
2.4999999999999942
 50
270.00000000000006
 51
52.525023308515919
  0
LINE
  8
_0-0_0
  6
CONTINUOUS
 62
    7
 10
38.295487755967876
 20
-3.2271482382546992
 11
10.867091966444622
 21
-3.2271482382558023
  0
LINE
  8
_0-0_0
  6
CONTINUOUS
 62
    7
 10
39.816524962265447
 20
30.286803925362719
 11
27.623364273803016
 21
20.939120502897026
  0
ARC
  8
_0-0_0
  6
CONTINUOUS
 62
    7
 10
24.581289861205214
 20
24.907216175662196
 40
4.9999999999999929
 50
232.52502330851576
 51
307.47497669148896
  0
LINE
  8
_0-0_0
  6
CONTINUOUS
 62
    7
 10
21.539215448607735
 20
20.939120502896778
 11
9.3460547601445576
 21
30.286803925361497
  0
ARC
  8
_0-0_0
  6
CONTINUOUS
 62
    7
 10
10.867091966443304
 20
32.270851761744204
 40
2.499999999999996
 50
89.999999999999943
 51
232.52502330851559
  0
LINE
  8
_0-0_0
  6
CONTINUOUS
 62
    7
 10
10.867091966443304
 20
34.770851761744197
 11
38.295487755966455
 21
34.770851761745305
  0
ARC
  8
_0-0_0
  6
CONTINUOUS
 62
    7
 10
38.295487755966512
 20
32.270851761745291
 40
2.500000000000012
 50
307.47497669148976
 51
90.000000000001236
  0
ARC
  8
_0-0_0
  6
CONTINUOUS
 62
    7
 10
45.581289861205306
 20
22.73578734782814
 40
4.9999999999999929
 50
0.0000000000021373
 51
127.47497669148871
  0
LINE
  8
_0-0_0
  6
CONTINUOUS
 62
    7
 10
50.581289861205299
 20
22.735787347828325
 11
50.58128986120586
 21
8.8079161756632427
  0
ARC
  8
_0-0_0
  6
CONTINUOUS
 62
    7
 10
45.58128986120586
 20
8.8079161756630562
 40
4.9999999999999964
 50
232.52502330851581
 51
0.0000000000021373
  0
LINE
  8
_0-0_0
  6
CONTINUOUS
 62
    7
 10
42.539215448608388
 20
4.8398205028976298
 11
30.867425254514565
 21
13.787803925362338
  0
ARC
  8
_0-0_0
  6
CONTINUOUS
 62
    7
 10
32.388462460813301
 20
15.771851761745053
 40
2.4999999999999982
 50
127.47497669148871
 51
232.52502330851598
  0
LINE
  8
_0-0_0
  6
CONTINUOUS
 62
    7
 10
30.867425254514405
 20
17.755899598127645
 11
42.539215448607521
 21
26.703883020593324
  0
ARC
  8
_0-0_0
  6
CONTINUOUS
 62
    7
 10
47.863834146058224
 20
33.771351761744654
 40
2.5
 50
270
 51
90
  0
LINE
  8
_0-0_0
  6
CONTINUOUS
 62
    7
 10
47.863834146058231
 20
31.271351761744654
 11
46.863834146058309
 21
31.271351761744612
  0
ARC
  8
_0-0_0
  6
CONTINUOUS
 62
    7
 10
46.863834146058259
 20
33.771351761744612
 40
2.5
 50
90.000000000001137
 51
270.00000000000114
  0
LINE
  8
_0-0_0
  6
CONTINUOUS
 62
    7
 10
46.86383414605821
 20
36.271351761744612
 11
47.863834146058231
 21
36.271351761744654
  0
ARC
  8
_0-0_0
  6
CONTINUOUS
 62
    7
 10
1.1428903374305548
 20
-2.2276482382548295
 40
2.5
 50
270
 51
90
  0
LINE
  8
_0-0_0
  6
CONTINUOUS
 62
    7
 10
1.1428903374305548
 20
-4.7276482382548295
 11
0.1428903374306628
 21
-4.7276482382548526
  0
ARC
  8
_0-0_0
  6
CONTINUOUS
 62
    7
 10
0.1428903374306116
 20
-2.2276482382548579
 40
2.4999999999999947
 50
90.000000000001251
 51
270.00000000000114
  0
LINE
  8
_0-0_0
  6
CONTINUOUS
 62
    7
 10
0.1428903374305605
 20
0.2723517617451364
 11
1.1428903374305548
 21
0.2723517617451705
  0
ARC
  8
_0-0_0
  6
CONTINUOUS
 62
    7
 10
1.1428903374291282
 20
33.771351761742793
 40
2.5
 50
270
 51
90
  0
LINE
  8
_0-0_0
  6
CONTINUOUS
 62
    7
 10
1.1428903374291282
 20
31.271351761742793
 11
0.142890337429219
 21
31.271351761742764
  0
ARC
  8
_0-0_0
  6
CONTINUOUS
 62
    7
 10
0.1428903374291792
 20
33.771351761742757
 40
2.4999999999999929
 50
90.000000000001023
 51
270.00000000000097
  0
LINE
  8
_0-0_0
  6
CONTINUOUS
 62
    7
 10
0.1428903374291337
 20
36.271351761742743
 11
1.1428903374291282
 21
36.271351761742793
  0
ARC
  8
_0-0_0
  6
CONTINUOUS
 62
    7
 10
46.863834146059638
 20
-2.2276482382530105
 40
2.5
 50
90
 51
270
  0
LINE
  8
_0-0_0
  6
CONTINUOUS
 62
    7
 10
46.863834146059638
 20
0.2723517617469895
 11
47.863834146059531
 21
0.2723517617470236
  0
ARC
  8
_0-0_0
  6
CONTINUOUS
 62
    7
 10
47.863834146059588
 20
-2.2276482382529763
 40
2.5
 50
270.00000000000131
 51
90.000000000001293
  0
LINE
  8
_0-0_0
  6
CONTINUOUS
 62
    7
 10
47.863834146059645
 20
-4.7276482382529768
 11
46.863834146059638
 21
-4.7276482382530105
  0
ARC
  8
_0-0_0
  6
CONTINUOUS
 62
    7
 10
11.581289861206518
 20
-7.5735088283135958
 40
0.7999999999999971
 50
270
 51
90
  0
LINE
  8
_0-0_0
  6
CONTINUOUS
 62
    7
 10
11.581289861206518
 20
-8.3735088283135894
 11
1.5812898612065738
 21
-8.3735088283143853
  0
ARC
  8
_0-0_0
  6
CONTINUOUS
 62
    7
 10
1.5812898612065454
 20
-7.5735088283143801
 40
0.8000000000000029
 50
90.000000000002217
 51
270.00000000000227
  0
LINE
  8
_0-0_0
  6
CONTINUOUS
 62
    7
 10
1.5812898612065114
 20
-6.7735088283143803
 11
11.581289861206518
 21
-6.7735088283135951
  0
ARC
  8
_0-0_0
  6
CONTINUOUS
 62
    7
 10
29.581289861206525
 20
-7.5735088283121854
 40
0.8000000000000029
 50
270
 51
90
  0
LINE
  8
_0-0_0
  6
CONTINUOUS
 62
    7
 10
29.581289861206525
 20
-8.3735088283121861
 11
19.581289861206574
 21
-8.3735088283129642
  0
ARC
  8
_0-0_0
  6
CONTINUOUS
 62
    7
 10
19.581289861206546
 20
-7.5735088283129643
 40
0.8
 50
90.00000000000216
 51
270.00000000000216
  0
LINE
  8
_0-0_0
  6
CONTINUOUS
 62
    7
 10
19.581289861206514
 20
-6.7735088283129645
 11
29.581289861206525
 21
-6.7735088283121803
  0
ARC
  8
_0-0_0
  6
CONTINUOUS
 62
    7
 10
47.581289861206528
 20
-7.5735088283107759
 40
0.8000000000000029
 50
270
 51
90
  0
LINE
  8
_0-0_0
  6
CONTINUOUS
 62
    7
 10
47.581289861206528
 20
-8.3735088283107757
 11
37.581289861206578
 21
-8.3735088283115608
  0
ARC
  8
_0-0_0
  6
CONTINUOUS
 62
    7
 10
37.581289861206557
 20
-7.5735088283115548
 40
0.8000000000000057
 50
90.000000000001819
 51
270.00000000000176
  0
LINE
  8
_0-0_0
  6
CONTINUOUS
 62
    7
 10
37.581289861206528
 20
-6.7735088283115488
 11
47.581289861206528
 21
-6.7735088283107707
  0
ARC
  8
_0-0_0
  6
CONTINUOUS
 62
    7
 10
30.183675544199037
 20
59.167189588409002
 40
0.8000000000000012
 50
60.000000000006651
 51
240.00000000000665
  0
LINE
  8
_0-0_0
  6
CONTINUOUS
 62
    7
 10
30.583675544198957
 20
59.860009911436592
 11
38.377904178259818
 21
55.360009911438148
  0
ARC
  8
_0-0_0
  6
CONTINUOUS
 62
    7
 10
37.97790417825955
 20
54.66718958840994
 40
0.8000000000007034
 50
240.00000000000688
 51
60.00000000000685
  0
LINE
  8
_0-0_0
  6
CONTINUOUS
 62
    7
 10
37.577904178259281
 20
53.974369265381739
 11
29.783675544199117
 21
58.474369265381398
  0
ARC
  8
_0-0_0
  6
CONTINUOUS
 62
    7
 10
43.590408804461632
 20
51.42680853164368
 40
0.8000000000000007
 50
60.00000000000756
 51
240.0000000000075
  0
LINE
  8
_0-0_0
  6
CONTINUOUS
 62
    7
 10
43.990408804461538
 20
52.119628854671284
 11
51.784637438523021
 21
47.619628854673905
  0
ARC
  8
_0-0_0
  6
CONTINUOUS
 62
    7
 10
51.384637443684362
 20
46.926808528664935
 40
0.8000000000013159
 50
239.99999957312042
 51
60.000000426893983
  0
LINE
  8
_0-0_0
  6
CONTINUOUS
 62
    7
 10
50.984637438521872
 20
46.233988208616424
 11
43.190408804461725
 21
50.733988208616083
  0
LINE
  8
_0-0_0
  6
CONTINUOUS
 62
    7
 10
-5.4187101387913348
 20
40.463572941858203
 11
-5.4187101387932275
 21
-8.9198694183734233
  0
LINE
  8
_0-0_0
  6
CONTINUOUS
 62
    7
 10
-5.4187101387932275
 20
-8.9198694183734233
 11
-11.660654292893572
 21
-12.523657556010864
  0
ARC
  8
_0-0_0
  6
CONTINUOUS
 62
    7
 10
-9.1606542928913992
 20
-16.853784574931797
 40
4.9999999999999938
 50
120.00000000002872
 51
210.00000000002839
  0
LINE
  8
_0-0_0
  6
CONTINUOUS
 62
    7
 10
-13.49078131181235
 20
-19.35378457493394
 11
-3.8213390259547566
 21
-36.101749894875091
  0
ARC
  8
_0-0_0
  6
CONTINUOUS
 62
    7
 10
0.5087879929662051
 20
-33.60174989487296
 40
5.0000000000000036
 50
210.00000000002828
 51
269.99999999999989
  0
LINE
  8
_0-0_0
  6
CONTINUOUS
 62
    7
 10
0.5087879929661938
 20
-38.60174989487296
 11
9.1687648117239924
 21
-38.60174989487296
  0
LINE
  8
_0-0_0
  6
CONTINUOUS
 62
    7
 10
9.1687648117239924
 20
-38.60174989487296
 11
11.08078986120865
 21
-37.497841717855685
  0
LINE
  8
_0-0_0
  6
CONTINUOUS
 62
    7
 10
11.08078986120865
 20
-37.497841717855685
 11
13.92665045129587
 21
-42.427016851137978
  0
ARC
  8
_0-0_0
  6
CONTINUOUS
 62
    7
 10
19.122802874002605
 20
-39.427016851138163
 40
6
 50
209.99999999999804
 51
299.99999999999824
  0
LINE
  8
_0-0_0
  6
CONTINUOUS
 62
    7
 10
22.122802874002446
 20
-44.623169273844887
 11
22.123235886703995
 21
-44.622919273845085
  0
ARC
  8
_0-0_0
  6
CONTINUOUS
 62
    7
 10
19.623235886704141
 20
-40.292792254922801
 40
5.0000000000000062
 50
299.99999999999807
 51
344.99999999997829
  0
LINE
  8
_0-0_0
  6
CONTINUOUS
 62
    7
 10
24.452865018148998
 20
-41.586887480437241
 11
25.576587828637816
 21
-37.393096858075261
  0
ARC
  8
_0-0_0
  6
CONTINUOUS
 62
    7
 10
30.406216960082659
 20
-38.687192083589736
 40
4.9999999999999991
 50
119.99999999997793
 51
164.99999999997789
  0
LINE
  8
_0-0_0
  6
CONTINUOUS
 62
    7
 10
27.906216960084329
 20
-34.357065064666578
 11
44.948083942502649
 21
-24.517938574882251
  0
ARC
  8
_0-0_0
  6
CONTINUOUS
 62
    7
 10
47.448083942500993
 20
-28.848065593805416
 40
5.0000000000000089
 50
74.999999999978058
 51
119.99999999997793
  0
LINE
  8
_0-0_0
  6
CONTINUOUS
 62
    7
 10
48.742179168015447
 20
-24.018436462360558
 11
52.935969790358399
 21
-25.142159272844278
  0
ARC
  8
_0-0_0
  6
CONTINUOUS
 62
    7
 10
54.230065015872825
 20
-20.312530141399431
 40
4.9999999999999973
 50
254.99999999997831
 51
299.99999999999818
  0
LINE
  8
_0-0_0
  6
CONTINUOUS
 62
    7
 10
56.73006501587269
 20
-24.642657160321701
 11
56.730498028591391
 21
-24.642407160312008
  0
ARC
  8
_0-0_0
  6
CONTINUOUS
 62
    7
 10
53.730498028591569
 20
-19.446254737605262
 40
6.0000000000000142
 50
299.99999999999801
 51
30.000000000001975
  0
LINE
  8
_0-0_0
  6
CONTINUOUS
 62
    7
 10
58.926650451298116
 20
-16.446254737605074
 11
54.581289861208546
 21
-8.9198694183711158
  0
LINE
  8
_0-0_0
  6
CONTINUOUS
 62
    7
 10
54.581289861208546
 20
-8.9198694183711158
 11
54.581289861204858
 21
40.463572941862481
  0
LINE
  8
_0-0_0
  6
CONTINUOUS
 62
    7
 10
54.581289861204858
 20
40.463572941862481
 11
56.580789861233498
 21
43.92680853164461
  0
LINE
  8
_0-0_0
  6
CONTINUOUS
 62
    7
 10
56.580789861233498
 20
43.92680853164461
 11
58.926650451283194
 21
47.989958261102416
  0
ARC
  8
_0-0_0
  6
CONTINUOUS
 62
    7
 10
53.73049802857345
 20
50.98995826109698
 40
5.9999999999999858
 50
330.00000000005986
 51
60.000000000057526
  0
LINE
  8
_0-0_0
  6
CONTINUOUS
 62
    7
 10
56.730498028568221
 20
56.186110683806618
 11
56.730065015872469
 21
56.186360683803088
  0
ARC
  8
_0-0_0
  6
CONTINUOUS
 62
    7
 10
54.230065015876818
 20
51.856233664878374
 40
5.0000000000000071
 50
60.000000000057639
 51
105.00000000003983
  0
LINE
  8
_0-0_0
  6
CONTINUOUS
 62
    7
 10
52.935969790360858
 20
56.685862796322823
 11
48.742179168000206
 21
55.562139985832964
  0
ARC
  8
_0-0_0
  6
CONTINUOUS
 62
    7
 10
47.448083942484232
 20
60.391769117277391
 40
5.0000000000000009
 50
240.00000000003996
 51
285.00000000003996
  0
LINE
  8
_0-0_0
  6
CONTINUOUS
 62
    7
 10
44.948083942487244
 20
56.06164209835346
 11
27.90621696003258
 21
65.900768588151649
  0
ARC
  8
_0-0_0
  6
CONTINUOUS
 62
    7
 10
30.406216960029578
 20
70.230895607075581
 40
5.0000000000000107
 50
195.00000000003953
 51
240.00000000003979
  0
LINE
  8
_0-0_0
  6
CONTINUOUS
 62
    7
 10
25.576587828585119
 20
68.93680038155965
 11
24.452865018099828
 21
73.130591003903234
  0
ARC
  8
_0-0_0
  6
CONTINUOUS
 62
    7
 10
19.623235886655433
 20
71.836495778387231
 40
4.9999999999999654
 50
15.000000000040465
 51
60.000000000058236
  0
LINE
  8
_0-0_0
  6
CONTINUOUS
 62
    7
 10
22.123235886651017
 20
76.166622797311945
 11
22.122802873962797
 21
76.166872797304038
  0
ARC
  8
_0-0_0
  6
CONTINUOUS
 62
    7
 10
19.122802873968016
 20
70.970720374594421
 40
5.999999999999984
 50
60.000000000057433
 51
150.00000000006352
  0
LINE
  8
_0-0_0
  6
CONTINUOUS
 62
    7
 10
13.92665045125807
 20
73.970720374588652
 11
11.58078986120632
 21
69.907570645126754
  0
LINE
  8
_0-0_0
  6
CONTINUOUS
 62
    7
 10
11.58078986120632
 20
69.907570645126754
 11
11.080789861205393
 21
69.041545241344153
  0
LINE
  8
_0-0_0
  6
CONTINUOUS
 62
    7
 10
11.080789861205393
 20
69.041545241344153
 11
10.214764457419911
 21
69.541545241343641
  0
LINE
  8
_0-0_0
  6
CONTINUOUS
 62
    7
 10
10.214764457419911
 20
69.541545241343641
 11
9.1687648117207523
 21
70.145453418365051
  0
LINE
  8
_0-0_0
  6
CONTINUOUS
 62
    7
 10
9.1687648117207523
 20
70.145453418365051
 11
0.508787992948794
 21
70.145453418360745
  0
ARC
  8
_0-0_0
  6
CONTINUOUS
 62
    7
 10
0.5087879929499535
 20
65.145453418362891
 40
4.9999999999978506
 50
90.00000000001323
 51
150.00000000003652
  0
LINE
  8
_0-0_0
  6
CONTINUOUS
 62
    7
 10
-3.8213390259719748
 20
67.645453418359054
 11
-13.490781311808895
 21
50.897488098418734
  0
ARC
  8
_0-0_0
  6
CONTINUOUS
 62
    7
 10
-9.1606542928856705
 20
48.39748809842051
 40
5.000000000000008
 50
150.00000000002353
 51
240.00000000000452
  0
LINE
  8
_0-0_0
  6
CONTINUOUS
 62
    7
 10
-11.660654292885329
 20
44.067361079498113
 11
-6.2847355425769535
 21
40.963572941861315
  0
LINE
  8
_0-0_0
  6
CONTINUOUS
 62
    7
 10
-6.2847355425769535
 20
40.963572941861315
 11
-5.4187101387913348
 21
40.463572941858203
  0
ARC
  8
_0-0_0
  6
CONTINUOUS
 62
    7
 10
0.1252773362157427
 20
52.273857279708182
 40
0.800000000000002
 50
330.00000000126533
 51
150.00000000126533
  0
LINE
  8
_0-0_0
  6
CONTINUOUS
 62
    7
 10
0.818097659252129
 20
51.873857279723488
 11
-2.1819023406354119
 21
46.677704856951934
  0
ARC
  8
_0-0_0
  6
CONTINUOUS
 62
    7
 10
-2.8747226666520249
 20
47.077704851774712
 40
0.7999999999999959
 50
149.9999995743789
 51
330.00000042815248
  0
LINE
  8
_0-0_0
  6
CONTINUOUS
 62
    7
 10
-3.5675429867081792
 20
47.477704856921321
 11
-0.5675429868206436
 21
52.673857279692882
  0
LINE
  8
_0-0_0
  6
CONTINUOUS
 62
    7
 10
38.186985015896951
 20
43.463572941861983
 11
24.687420641350116
 21
43.463572941861457
  0
ARC
  8
_0-0_0
  6
CONTINUOUS
 62
    7
 10
24.687420641350052
 20
46.463572941861543
 40
3.0000000000000844
 50
199.34961572749276
 51
270.00000000000125
  0
LINE
  8
_0-0_0
  6
CONTINUOUS
 62
    7
 10
21.856877482657847
 20
45.469578260396261
 11
18.423851861510176
 21
55.245613652487549
  0
ARC
  8
_0-0_0
  6
CONTINUOUS
 62
    7
 10
21.25439502020232
 20
56.239608333952759
 40
3.0000000000000027
 50
60.000000000002728
 51
199.34961572749182
  0
LINE
  8
_0-0_0
  6
CONTINUOUS
 62
    7
 10
22.754395020202196
 20
58.837684545306139
 11
39.68698501589671
 21
49.061649153215384
  0
ARC
  8
_0-0_0
  6
CONTINUOUS
 62
    7
 10
38.186985015896894
 20
46.463572941861969
 40
2.9999999999999902
 50
270.00000000000108
 51
60.000000000003965
  0
LINE
  8
_0-0_0
  6
CONTINUOUS
 62
    7
 10
13.558814492643979
 20
43.463572941860932
 11
4.9735947066195543
 21
43.463572941860591
  0
ARC
  8
_0-0_0
  6
CONTINUOUS
 62
    7
 10
4.9735947066195028
 20
46.463572941860633
 40
3.0000000000000369
 50
150.0000000000056
 51
270.00000000000097
  0
LINE
  8
_0-0_0
  6
CONTINUOUS
 62
    7
 10
2.3755184952660104
 20
47.963572941860392
 11
7.7137890980765862
 21
57.209728850481298
  0
ARC
  8
_0-0_0
  6
CONTINUOUS
 62
    7
 10
10.311865309430022
 20
55.709728850481511
 40
2.9999999999999938
 50
19.349615727491933
 51
150.00000000000472
  0
LINE
  8
_0-0_0
  6
CONTINUOUS
 62
    7
 10
13.142408468122154
 20
56.703723531946721
 11
16.389357651335985
 21
47.457567623326142
  0
ARC
  8
_0-0_0
  6
CONTINUOUS
 62
    7
 10
13.558814492643899
 20
46.463572941860889
 40
2.9999999999999609
 50
270.00000000000148
 51
19.349615727492949
  0
ARC
  8
_0-0_0
  6
CONTINUOUS
 62
    7
 10
3.624777336082059
 20
58.335169080872063
 40
0.7999999999999991
 50
150.0000000012657
 51
330.00000000126568
  0
LINE
  8
_0-0_0
  6
CONTINUOUS
 62
    7
 10
2.9319570130456727
 20
58.73516908085675
 11
5.9319570129281205
 21
63.931321503631253
  0
ARC
  8
_0-0_0
  6
CONTINUOUS
 62
    7
 10
6.6247773359660984
 20
63.531321503645643
 40
0.8000000000018321
 50
330.0000000012663
 51
150.00000000126627
  0
LINE
  8
_0-0_0
  6
CONTINUOUS
 62
    7
 10
7.3175976590040763
 20
63.131321503660047
 11
4.3175976591184453
 21
57.935169080887363
  0
ARC
  8
_0-0_0
  6
CONTINUOUS
 62
    7
 10
24.571170917992987
 20
62.407570645176705
 40
0.8000000000000423
 50
240.00000000000929
 51
60.000000000009273
  0
LINE
  8
_0-0_0
  6
CONTINUOUS
 62
    7
 10
24.171170917993077
 20
61.714750322149044
 11
16.376942283932674
 21
66.214750322148348
  0
ARC
  8
_0-0_0
  6
CONTINUOUS
 62
    7
 10
16.776942283932708
 20
66.90757064517615
 40
0.800000000000233
 50
60.000000000007162
 51
240.00000000000716
  0
LINE
  8
_0-0_0
  6
CONTINUOUS
 62
    7
 10
17.176942283932735
 20
67.600390968203939
 11
24.971170917992893
 21
63.100390968204351
  0
CIRCLE
  8
_0-0_0
  6
CONTINUOUS
 62
    7
 10
19.623052874001758
 20
-40.293475267626562
 40
1.55
  0
CIRCLE
  8
_0-0_0
  6
CONTINUOUS
 62
    7
 10
54.23074802859567
 20
-20.312713154106916
 40
1.549999999999998
  0
CIRCLE
  8
_0-0_0
  6
CONTINUOUS
 62
    7
 10
-9.842924199976574
 20
-17.246538588908709
 40
2.2499999999999991
  0
CIRCLE
  8
_0-0_0
  6
CONTINUOUS
 62
    7
 10
0.157075800023432
 20
-34.567046664597449
 40
2.25
  0
CIRCLE
  8
_0-0_0
  6
CONTINUOUS
 62
    7
 10
-4.8429241999765624
 20
-25.906792626753077
 40
2.25
  0
CIRCLE
  8
_0-0_0
  6
CONTINUOUS
 62
    7
 10
-4.8429241999799277
 20
57.450496150242174
 40
2.2500000000000009
  0
CIRCLE
  8
_0-0_0
  6
CONTINUOUS
 62
    7
 10
-9.842924199979258
 20
48.790242112397394
 40
2.2500000000000009
  0
CIRCLE
  8
_0-0_0
  6
CONTINUOUS
 62
    7
 10
0.1570758000184867
 20
66.110750188085348
 40
2.2500000000000009
  0
CIRCLE
  8
_0-0_0
  6
CONTINUOUS
 62
    7
 10
19.623052873955174
 20
71.837178791082849
 40
1.5500000000000009
  0
CIRCLE
  8
_0-0_0
  6
CONTINUOUS
 62
    7
 10
54.230748028555311
 20
51.856416677574032
 40
1.5500000000000009
  0
ENDSEC
  0
EOF
