  0
SECTION
  2
HEADER
  9
$ACADVER
  1
AC1009
  9
$INSBASE
 10
0.0
 20
0.0
 30
0.0
  9
$EXTMIN
 10
0.0
 20
0.0
 30
0.0
  9
$EXTMAX
 10
205.3533803448538038
 20
92.1989570853831992
 30
0.0
  9
$LIMMIN
 10
0.0
 20
0.0
  9
$LIMMAX
 10
205.3533803448538038
 20
92.1989570853831992
  9
$ORTHOMODE
 70
     0
  9
$REGENMODE
 70
     1
  9
$FILLMODE
 70
     1
  9
$QTEXTMODE
 70
     0
  9
$MIRRTEXT
 70
     0
  9
$DRAGMODE
 70
     2
  9
$LTSCALE
 40
1.0
  9
$OSMODE
 70
     0
  9
$ATTMODE
 70
     1
  9
$TEXTSIZE
 40
0.2
  9
$TRACEWID
 40
0.05
  9
$TEXTSTYLE
  7
STANDARD
  9
$CLAYER
  8
0
  9
$CELTYPE
  6
BYLAYER
  9
$CECOLOR
 62
   256
  9
$DIMSCALE
 40
1.0
  9
$DIMASZ
 40
0.18
  9
$DIMEXO
 40
0.0625
  9
$DIMDLI
 40
0.38
  9
$DIMRND
 40
0.0
  9
$DIMDLE
 40
0.0
  9
$DIMEXE
 40
0.18
  9
$DIMTP
 40
0.0
  9
$DIMTM
 40
0.0
  9
$DIMTXT
 40
0.18
  9
$DIMCEN
 40
0.09
  9
$DIMTSZ
 40
0.0
  9
$DIMTOL
 70
     0
  9
$DIMLIM
 70
     0
  9
$DIMTIH
 70
     1
  9
$DIMTOH
 70
     1
  9
$DIMSE1
 70
     0
  9
$DIMSE2
 70
     0
  9
$DIMTAD
 70
     0
  9
$DIMZIN
 70
     0
  9
$DIMBLK
  1

  9
$DIMASO
 70
     1
  9
$DIMSHO
 70
     1
  9
$DIMPOST
  1

  9
$DIMAPOST
  1

  9
$DIMALT
 70
     0
  9
$DIMALTD
 70
     2
  9
$DIMALTF
 40
25.3999999999999986
  9
$DIMLFAC
 40
1.0
  9
$DIMTOFL
 70
     0
  9
$DIMTVP
 40
0.0
  9
$DIMTIX
 70
     0
  9
$DIMSOXD
 70
     0
  9
$DIMSAH
 70
     0
  9
$DIMBLK1
  1

  9
$DIMBLK2
  1

  9
$DIMSTYLE
  2
STANDARD
  9
$DIMCLRD
 70
     0
  9
$DIMCLRE
 70
     0
  9
$DIMCLRT
 70
     0
  9
$DIMTFAC
 40
1.0
  9
$DIMGAP
 40
0.09
  9
$LUNITS
 70
     2
  9
$LUPREC
 70
     4
  9
$SKETCHINC
 40
0.1
  9
$FILLETRAD
 40
0.0
  9
$AUNITS
 70
     0
  9
$AUPREC
 70
     0
  9
$MENU
  1
.
  9
$ELEVATION
 40
0.0
  9
$PELEVATION
 40
0.0
  9
$THICKNESS
 40
0.0
  9
$LIMCHECK
 70
     0
  9
$BLIPMODE
 70
     0
  9
$CHAMFERA
 40
0.0
  9
$CHAMFERB
 40
0.0
  9
$SKPOLY
 70
     0
  9
$TDCREATE
 40
2458433.8759143520146608
  9
$TDUPDATE
 40
2458433.8759143520146608
  9
$TDINDWG
 40
0.0
  9
$TDUSRTIMER
 40
0.0
  9
$USRTIMER
 70
     1
  9
$ANGBASE
 50
0.0
  9
$ANGDIR
 70
     0
  9
$PDMODE
 70
     0
  9
$PDSIZE
 40
0.0
  9
$PLINEWID
 40
0.0
  9
$COORDS
 70
     0
  9
$SPLFRAME
 70
     0
  9
$SPLINETYPE
 70
     6
  9
$SPLINESEGS
 70
     8
  9
$ATTDIA
 70
     1
  9
$ATTREQ
 70
     1
  9
$HANDLING
 70
     1
  9
$HANDSEED
  5
212
  9
$SURFTAB1
 70
     6
  9
$SURFTAB2
 70
     6
  9
$SURFTYPE
 70
     6
  9
$SURFU
 70
     6
  9
$SURFV
 70
     6
  9
$UCSNAME
  2

  9
$UCSORG
 10
0.0
 20
0.0
 30
0.0
  9
$UCSXDIR
 10
1.0
 20
0.0
 30
0.0
  9
$UCSYDIR
 10
0.0
 20
1.0
 30
0.0
  9
$PUCSNAME
  2

  9
$PUCSORG
 10
0.0
 20
0.0
 30
0.0
  9
$PUCSXDIR
 10
1.0
 20
0.0
 30
0.0
  9
$PUCSYDIR
 10
0.0
 20
1.0
 30
0.0
  9
$USERI1
 70
     0
  9
$USERI2
 70
     0
  9
$USERI3
 70
     0
  9
$USERI4
 70
     0
  9
$USERI5
 70
     0
  9
$USERR1
 40
0.0
  9
$USERR2
 40
0.0
  9
$USERR3
 40
0.0
  9
$USERR4
 40
0.0
  9
$USERR5
 40
0.0
  9
$WORLDVIEW
 70
     1
  9
$SHADEDGE
 70
     3
  9
$SHADEDIF
 70
    70
  9
$TILEMODE
 70
     1
  9
$MAXACTVP
 70
    64
  9
$PLIMCHECK
 70
     0
  9
$PEXTMIN
 10
0.0
 20
0.0
 30
0.0
  9
$PEXTMAX
 10
205.3533803448538038
 20
92.1989570853831992
 30
0.0
  9
$PLIMMIN
 10
0.0
 20
0.0
  9
$PLIMMAX
 10
205.3533803448538038
 20
92.1989570853831992
  9
$UNITMODE
 70
     0
  9
$VISRETAIN
 70
     1
  9
$PLINEGEN
 70
     0
  9
$PSLTSCALE
 70
     1
  0
ENDSEC
  0
SECTION
  2
TABLES
  0
TABLE
  2
VPORT
 70
     1
  0
VPORT
  2
*ACTIVE
 70
     0
 10
0.0
 20
0.0
 11
1.0
 21
1.0
 12
71.299999999999585
 22
-41.2872963720113617
 13
0.0
 23
0.0
 14
1.0
 24
1.0
 15
0.0
 25
0.0
 16
0.0
 26
0.0
 36
1.0
 17
0.0
 27
0.0
 37
0.0
 40
92.1989570853831992
 41
2.2272852843083788
 42
50.0
 43
0.0
 44
0.0
 50
0.0
 51
0.0
 71
     0
 72
   100
 73
     1
 74
     1
 75
     0
 76
     0
 77
     0
 78
     0
  0
ENDTAB
  0
TABLE
  2
LTYPE
 70
    59
  0
LTYPE
  2
CONTINUOUS
 70
     0
  3
Solid line
 72
    65
 73
     0
 40
0.0
  0
LTYPE
  2
BY_STANDARD
 70
     0
  3
By Standard ____________    ____    ____   _
 72
    65
 73
     6
 40
1.2402999999999991
 49
0.6614
 49
-0.0827
 49
0.1654
 49
-0.0827
 49
0.1654
 49
-0.0827
  0
LTYPE
  2
CHAIN
 70
     0
  3
Chain ____ _ ____ _ ____ _ ____ _ ____ _ ____
 72
    65
 73
     4
 40
0.7087
 49
0.4724000000000001
 49
-0.0591
 49
0.1181
 49
-0.0591
  0
LTYPE
  2
DASH_DOT
 70
     0
  3
Dash dot __ . __ . __ . __ . __ . __ . __ . __
 72
    65
 73
     4
 40
0.37
 49
0.24
 49
-0.06
 49
0.01
 49
-0.06
  0
LTYPE
  2
DOUBLE_DASH_DOT
 70
     0
  3
Double-Dash Dot __ __ . __ __ . __ __ . __ _
 72
    65
 73
     6
 40
0.4398
 49
0.24
 49
-0.06
 49
0.0098
 49
-0.06
 49
0.01
 49
-0.06
  0
LTYPE
  2
DASH_TRIPLE_DOT
 70
     0
  3
Dash Triple-Dot _ . . . _ . . . _ . . . _
 72
    65
 73
     8
 40
0.51
 49
0.24
 49
-0.06
 49
0.01
 49
-0.06
 49
0.01
 49
-0.06
 49
0.01
 49
-0.06
  0
LTYPE
  2
DASHED
 70
     0
  3
Dashed __ __ __ __ __ __ __ __ __ __ __ __ __ _
 72
    65
 73
     2
 40
0.2067
 49
0.1654
 49
-0.0413
  0
LTYPE
  2
DASH_DOUBLE_DOT
 70
     0
  3
Dash Double-Dot __ . . __ . . __ . . __ . .
 72
    65
 73
     6
 40
0.4398
 49
0.24
 49
-0.06
 49
0.0098
 49
-0.06
 49
0.01
 49
-0.06
  0
LTYPE
  2
DASHED_SPACE
 70
     0
  3
Dashed Space __ __ __ __ __ __ __ __ __ __ __ _
 72
    65
 73
     2
 40
0.2067
 49
0.1654
 49
-0.0413
  0
LTYPE
  2
DOTTED
 70
     0
  3
Dotted . . . . . . . . . . . . . . . . . . . . 
 72
    65
 73
     2
 40
0.0482
 49
0.0069
 49
-0.0413
  0
LTYPE
  2
DOUBLE_DASH_CHAIN
 70
     0
  3
Double-Dash Chain ______  __  __  ______  __  _
 72
    65
 73
     6
 40
1.2402999999999991
 49
0.6614
 49
-0.0827
 49
0.1654
 49
-0.0827
 49
0.1654
 49
-0.0827
  0
LTYPE
  2
DOUBLE_DASH_DOUBLE_DOT
 70
     0
  3
Double-Dash Double-dot _ _ . . _ _ . . _
 72
    65
 73
     8
 40
0.7400000000000001
 49
0.24
 49
-0.06
 49
0.24
 49
-0.06
 49
0.01
 49
-0.06
 49
0.01
 49
-0.06
  0
LTYPE
  2
DOUBLE_DASH_TRIPLE_DOT
 70
     0
  3
Double Dash Triple Dot __ __ . . . __ __ . .
 72
    65
 73
    10
 40
0.8100000000000001
 49
0.24
 49
-0.06
 49
0.24
 49
-0.06
 49
0.01
 49
-0.06
 49
0.01
 49
-0.06
 49
0.01
 49
-0.06
  0
LTYPE
  2
LONG_DASH_DOTTED
 70
     0
  3
Long Dash Dotted ____ . ____ . ____ . ____ . _
 72
    65
 73
     4
 40
0.3543
 49
0.2362
 49
-0.0295
 49
0.0591
 49
-0.0295
  0
LTYPE
  2
LONG_DASH_DOUBLE_DOT
 70
     0
  3
Long Dash Double Dot ________  .  .  ________  
 72
    65
 73
     6
 40
0.6799999999999999
 49
0.48
 49
-0.06
 49
0.01
 49
-0.06
 49
0.01
 49
-0.06
  0
LTYPE
  2
LONG_DASH_TRIPLE_DOT
 70
     0
  3
Long Dash Triple Dot ____ ... ____ ... ____
 72
    65
 73
     8
 40
0.3689
 49
0.2362
 49
-0.0295
 49
0.0049
 49
-0.0295
 49
0.0049
 49
-0.0295
 49
0.0049
 49
-0.0295
  0
LTYPE
  2
BORDER
 70
     0
  3
Border __ __ . __ __ . __ __ . __ __ . __ __ .
 72
    65
 73
     6
 40
1.75
 49
0.5
 49
-0.25
 49
0.5
 49
-0.25
 49
0.0
 49
-0.25
  0
LTYPE
  2
BORDER2
 70
     0
  3
Border (.5x) __.__.__.__.__.__.__.__.__.__.__.
 72
    65
 73
     6
 40
0.875
 49
0.25
 49
-0.125
 49
0.25
 49
-0.125
 49
0.0
 49
-0.125
  0
LTYPE
  2
BORDERX2
 70
     0
  3
Border (2x) ____  ____  .  ____  ____  .  ___
 72
    65
 73
     6
 40
3.5
 49
1.0
 49
-0.5
 49
1.0
 49
-0.5
 49
0.0
 49
-0.5
  0
LTYPE
  2
CENTER
 70
     0
  3
Center ____ _ ____ _ ____ _ ____ _ ____ _ ____
 72
    65
 73
     4
 40
2.0
 49
1.25
 49
-0.25
 49
0.25
 49
-0.25
  0
LTYPE
  2
CENTER2
 70
     0
  3
Center (.5x) ___ _ ___ _ ___ _ ___ _ ___ _ ___
 72
    65
 73
     4
 40
1.125
 49
0.75
 49
-0.125
 49
0.125
 49
-0.125
  0
LTYPE
  2
CENTERX2
 70
     0
  3
Center (2x) ________  __  ________  __  _____
 72
    65
 73
     4
 40
4.0
 49
2.5
 49
-0.5
 49
0.5
 49
-0.5
  0
LTYPE
  2
DASHDOT2
 70
     0
  3
Dash dot (.5x) _._._._._._._._._._._._._._._.
 72
    65
 73
     4
 40
0.5
 49
0.25
 49
-0.125
 49
0.0
 49
-0.125
  0
LTYPE
  2
DASHDOTX2
 70
     0
  3
Dash dot (2x) ____  .  ____  .  ____  .  ___
 72
    65
 73
     4
 40
2.0
 49
1.0
 49
-0.5
 49
0.0
 49
-0.5
  0
LTYPE
  2
DASHED2
 70
     0
  3
Dashed (.5x) _ _ _ _ _ _ _ _ _ _ _ _ _ _ _ _ _
 72
    65
 73
     2
 40
0.375
 49
0.25
 49
-0.125
  0
LTYPE
  2
DASHEDX2
 70
     0
  3
Dashed (2x) ____  ____  ____  ____  ____  ___
 72
    65
 73
     2
 40
1.5
 49
1.0
 49
-0.5
  0
LTYPE
  2
DIVIDE
 70
     0
  3
Divide ____ . . ____ . . ____ . . ____ . . ____
 72
    65
 73
     6
 40
1.25
 49
0.5
 49
-0.25
 49
0.0
 49
-0.25
 49
0.0
 49
-0.25
  0
LTYPE
  2
DIVIDE2
 70
     0
  3
Divide (.5x) __..__..__..__..__..__..__..__.._
 72
    65
 73
     6
 40
0.625
 49
0.25
 49
-0.125
 49
0.0
 49
-0.125
 49
0.0
 49
-0.125
  0
LTYPE
  2
DIVIDEX2
 70
     0
  3
Divide (2x) ________  .  .  ________  .  .  _
 72
    65
 73
     6
 40
2.5
 49
1.0
 49
-0.5
 49
0.0
 49
-0.5
 49
0.0
 49
-0.5
  0
LTYPE
  2
DOT
 70
     0
  3
Dot . . . . . . . . . . . . . . . . . . . . . .
 72
    65
 73
     2
 40
0.25
 49
0.0
 49
-0.25
  0
LTYPE
  2
DOT2
 70
     0
  3
Dot (.5x) .....................................
 72
    65
 73
     2
 40
0.125
 49
0.0
 49
-0.125
  0
LTYPE
  2
DOTX2
 70
     0
  3
Dot (2x) .  .  .  .  .  .  .  .  .  .  .  .  . 
 72
    65
 73
     2
 40
0.5
 49
0.0
 49
-0.5
  0
LTYPE
  2
HIDDEN
 70
     0
  3
Hidden __ __ __ __ __ __ __ __ __ __ __ __ __ _
 72
    65
 73
     2
 40
0.375
 49
0.25
 49
-0.125
  0
LTYPE
  2
HIDDEN2
 70
     0
  3
Hidden (.5x) _ _ _ _ _ _ _ _ _ _ _ _ _ _ _ _ _
 72
    65
 73
     2
 40
0.1875
 49
0.125
 49
-0.0625
  0
LTYPE
  2
HIDDENX2
 70
     0
  3
Hidden (2x) ____ ____ ____ ____ ____ ____ ____
 72
    65
 73
     2
 40
0.75
 49
0.5
 49
-0.25
  0
LTYPE
  2
PHANTOM
 70
     0
  3
Phantom ______  __  __  ______  __  __  ______
 72
    65
 73
     6
 40
2.5
 49
1.25
 49
-0.25
 49
0.25
 49
-0.25
 49
0.25
 49
-0.25
  0
LTYPE
  2
PHANTOM2
 70
     0
  3
Phantom (.5x) ___ _ _ ___ _ _ ___ _ _ ___ _ _
 72
    65
 73
     6
 40
1.25
 49
0.625
 49
-0.125
 49
0.125
 49
-0.125
 49
0.125
 49
-0.125
  0
LTYPE
  2
PHANTOMX2
 70
     0
  3
Phantom (2x) ____________    ____    ____   _
 72
    65
 73
     6
 40
5.0
 49
2.5
 49
-0.5
 49
0.5
 49
-0.5
 49
0.5
 49
-0.5
  0
LTYPE
  2
ACAD_ISO02W100
 70
     0
  3
ISO dash __ __ __ __ __ __ __ __ __ __ __ __ __
 72
    65
 73
     2
 40
0.59
 49
0.47
 49
-0.12
  0
LTYPE
  2
ACAD_ISO03W100
 70
     0
  3
ISO dash space __    __    __    __    __    __
 72
    65
 73
     2
 40
1.179999999999999
 49
0.47
 49
-0.71
  0
LTYPE
  2
ACAD_ISO04W100
 70
     0
  3
ISO long-dash dot ____ . ____ . ____ . ____ . _
 72
    65
 73
     4
 40
1.179999999999999
 49
0.9399999999999998
 49
-0.12
 49
0.0
 49
-0.12
  0
LTYPE
  2
ACAD_ISO05W100
 70
     0
  3
ISO long-dash double-dot ____ .. ____ .. ____ .
 72
    65
 73
     6
 40
1.2999999999999989
 49
0.9399999999999998
 49
-0.12
 49
0.0
 49
-0.12
 49
0.0
 49
-0.12
  0
LTYPE
  2
ACAD_ISO06W100
 70
     0
  3
ISO long-dash triple-dot ____ ... ____ ... ____
 72
    65
 73
     8
 40
1.419999999999999
 49
0.9399999999999998
 49
-0.12
 49
0.0
 49
-0.12
 49
0.0
 49
-0.12
 49
0.0
 49
-0.12
  0
LTYPE
  2
ACAD_ISO07W100
 70
     0
  3
ISO dot . . . . . . . . . . . . . . . . . . . .
 72
    65
 73
     2
 40
0.12
 49
0.0
 49
-0.12
  0
LTYPE
  2
ACAD_ISO08W100
 70
     0
  3
ISO long-dash short-dash ____ __ ____ __ ____ _
 72
    65
 73
     4
 40
0.95
 49
0.47
 49
-0.12
 49
0.24
 49
-0.12
  0
LTYPE
  2
ACAD_ISO09W100
 70
     0
  3
ISO long-dash double-short-dash ____ __ __ ____
 72
    65
 73
     6
 40
1.3100000000000001
 49
0.47
 49
-0.12
 49
0.24
 49
-0.12
 49
0.24
 49
-0.12
  0
LTYPE
  2
ACAD_ISO10W100
 70
     0
  3
ISO dash dot __ . __ . __ . __ . __ . __ . __ .
 72
    65
 73
     4
 40
0.71
 49
0.47
 49
-0.12
 49
0.0
 49
-0.12
  0
LTYPE
  2
ACAD_ISO11W100
 70
     0
  3
ISO double-dash dot __ __ . __ __ . __ __ . __ 
 72
    65
 73
     6
 40
1.2999999999999989
 49
0.47
 49
-0.12
 49
0.47
 49
-0.12
 49
0.0
 49
-0.12
  0
LTYPE
  2
ACAD_ISO12W100
 70
     0
  3
ISO dash double-dot __ . . __ . . __ . . __ . .
 72
    65
 73
     6
 40
0.8299999999999998
 49
0.47
 49
-0.12
 49
0.0
 49
-0.12
 49
0.0
 49
-0.12
  0
LTYPE
  2
ACAD_ISO13W100
 70
     0
  3
ISO double-dash double-dot __ __ . . __ __ . . 
 72
    65
 73
     8
 40
1.419999999999999
 49
0.47
 49
-0.12
 49
0.47
 49
-0.12
 49
0.0
 49
-0.12
 49
0.0
 49
-0.12
  0
LTYPE
  2
ACAD_ISO14W100
 70
     0
  3
ISO dash triple-dot __ . . . __ . . . __ . . . 
 72
    65
 73
     8
 40
0.95
 49
0.47
 49
-0.12
 49
0.0
 49
-0.12
 49
0.0
 49
-0.12
 49
0.0
 49
-0.12
  0
LTYPE
  2
ACAD_ISO15W100
 70
     0
  3
ISO double-dash triple-dot __ __ . . . __ __ . 
 72
    65
 73
    10
 40
1.5399999999999989
 49
0.47
 49
-0.12
 49
0.47
 49
-0.12
 49
0.0
 49
-0.12
 49
0.0
 49
-0.12
 49
0.0
 49
-0.12
  0
LTYPE
  2
FENCELINE1
 70
     0
  3
Fenceline circle ----0-----0----0-----0----0---
 72
    65
 73
     4
 40
1.45
 49
0.25
 49
-0.1
 49
-0.1
 49
1.0
  0
LTYPE
  2
FENCELINE2
 70
     0
  3
Fenceline square ----[]-----[]----[]-----[]----
 72
    65
 73
     4
 40
1.45
 49
0.25
 49
-0.1
 49
-0.1
 49
1.0
  0
LTYPE
  2
TRACKS
 70
     0
  3
Tracks -|-|-|-|-|-|-|-|-|-|-|-|-|-|-|-|-|-|-|-|
 72
    65
 73
     2
 40
0.3
 49
0.15
 49
0.15
  0
LTYPE
  2
BATTING
 70
     0
  3
Batting SSSSSSSSSSSSSSSSSSSSSSSSSSSSSSSSSSSSSSS
 72
    65
 73
     4
 40
0.4001000000000001
 49
0.0001
 49
-0.1
 49
-0.2
 49
-0.1
  0
LTYPE
  2
HOT_WATER_SUPPLY
 70
     0
  3
Hot water supply ---- HW ---- HW ---- HW ----
 72
    65
 73
     3
 40
0.9
 49
0.5
 49
-0.2
 49
-0.2
  0
LTYPE
  2
GAS_LINE
 70
     0
  3
Gas line ----GAS----GAS----GAS----GAS----GAS---
 72
    65
 73
     3
 40
0.95
 49
0.5
 49
-0.2
 49
-0.25
  0
LTYPE
  2
ZIGZAG
 70
     0
  3
Zig zag /\/\/\/\/\/\/\/\/\/\/\/\/\/\/\/\/\/\/\/
 72
    65
 73
     4
 40
0.8001000000000001
 49
0.0001
 49
-0.2
 49
-0.4
 49
-0.2
  0
ENDTAB
  0
TABLE
  2
LAYER
 70
     1
  0
LAYER
  2
0
 70
     0
 62
     7
  6
CONTINUOUS
  0
ENDTAB
  0
TABLE
  2
STYLE
 70
     5
  0
STYLE
  2
STANDARD
 70
     0
 40
0.0
 41
1.0
 50
0.0
 71
     0
 42
0.2
  3
txt
  4

  0
STYLE
  2
ANNOTATIVE
 70
     0
 40
0.0
 41
1.0
 50
0.0
 71
     0
 42
0.2
  3
txt
  4

  0
STYLE
  2

 70
     1
 40
0.0
 41
1.0
 50
0.0
 71
     0
 42
0.2
  3
ltypeshp.shx
  4

  0
STYLE
  2
NOTE_TEXT__ANSI__-_3DA
 70
     0
 40
0.0
 41
1.0
 50
0.0
 71
     0
 42
0.2
  3
txt.shx
  4
bigfont.shx
  0
STYLE
  2
SKETCH_TEXT__ANSI__-_3DA
 70
     0
 40
0.0
 41
1.0
 50
0.0
 71
     0
 42
0.2
  3
txt.shx
  4
bigfont.shx
  0
ENDTAB
  0
TABLE
  2
VIEW
 70
     0
  0
ENDTAB
  0
TABLE
  2
UCS
 70
     0
  0
ENDTAB
  0
TABLE
  2
APPID
 70
     3
  0
APPID
  2
ACAD
 70
     0
  0
APPID
  2
ACADANNOTATIVE
 70
     0
  0
APPID
  2
ACAD_MLEADERVER
 70
     0
  0
ENDTAB
  0
TABLE
  2
DIMSTYLE
 70
     2
  0
DIMSTYLE
  2
STANDARD
 70
     0
  3

  4

  5

  6

  7

 40
1.0
 41
0.18
 42
0.0625
 43
0.38
 44
0.18
 45
0.0
 46
0.0
 47
0.0
 48
0.0
140
0.18
141
0.09
142
0.0
143
25.3999999999999986
144
1.0
145
0.0
146
1.0
147
0.09
 71
     0
 72
     0
 73
     1
 74
     1
 75
     0
 76
     0
 77
     0
 78
     0
170
     0
171
     2
172
     0
173
     0
174
     0
175
     0
176
     0
177
     0
178
     0
  0
DIMSTYLE
  2
ANNOTATIVE
 70
     0
  3

  4

  5

  6

  7

 40
1.0
 41
0.18
 42
0.0625
 43
0.38
 44
0.18
 45
0.0
 46
0.0
 47
0.0
 48
0.0
140
0.18
141
0.09
142
0.0
143
25.3999999999999986
144
1.0
145
0.0
146
1.0
147
0.09
 71
     0
 72
     0
 73
     1
 74
     1
 75
     0
 76
     0
 77
     0
 78
     0
170
     0
171
     2
172
     0
173
     0
174
     0
175
     0
176
     0
177
     0
178
     0
  0
ENDTAB
  0
ENDSEC
  0
SECTION
  2
BLOCKS
  0
BLOCK
  8
0
  2
$MODEL_SPACE
 70
     0
 10
0.0
 20
0.0
 30
0.0
  3
$MODEL_SPACE
  1

  0
ENDBLK
  5
72
  8
0
  0
BLOCK
 67
     1
  8
0
  2
$PAPER_SPACE
 70
     0
 10
0.0
 20
0.0
 30
0.0
  3
$PAPER_SPACE
  1

  0
ENDBLK
  5
6E
 67
     1
  8
0
  0
ENDSEC
  0
SECTION
  2
ENTITIES
  0
POLYLINE
  5
B8
  8
0
 66
     1
 10
0.0
 20
0.0
 30
0.0
 70
     1
  0
VERTEX
  5
B9
  8
0
 10
22.3000000000011802
 20
-75.0064445580161561
 30
0.0
 42
-0.9999999999999998
  0
VERTEX
  5
BA
  8
0
 10
22.3000000000011802
 20
-77.1064445580161504
 30
0.0
  0
VERTEX
  5
BC
  8
0
 10
8.3000000000012086
 20
-77.1064445580165483
 30
0.0
 42
-0.9999999999999998
  0
VERTEX
  5
BD
  8
0
 10
8.3000000000011731
 20
-75.0064445580166534
 30
0.0
  0
SEQEND
  5
BB
  8
0
  0
POLYLINE
  5
BF
  8
0
 66
     1
 10
0.0
 20
0.0
 30
0.0
 70
     1
  0
VERTEX
  5
C0
  8
0
 10
36.3000000000011909
 20
-77.1064445580156814
 30
0.0
 42
-0.9999999999999998
  0
VERTEX
  5
C1
  8
0
 10
36.3000000000011909
 20
-75.0064445580156871
 30
0.0
  0
VERTEX
  5
C3
  8
0
 10
50.3000000000011411
 20
-75.0064445580151045
 30
0.0
 42
-0.9999999999999998
  0
VERTEX
  5
C4
  8
0
 10
50.3000000000011767
 20
-77.1064445580151983
 30
0.0
  0
SEQEND
  5
C2
  8
0
  0
POLYLINE
  5
C5
  8
0
 66
     1
 10
0.0
 20
0.0
 30
0.0
 70
     1
  0
VERTEX
  5
C6
  8
0
 10
64.3000000000011767
 20
-77.1064445580147435
 30
0.0
 42
-0.9999999999999998
  0
VERTEX
  5
C7
  8
0
 10
64.3000000000011767
 20
-75.0064445580147492
 30
0.0
  0
VERTEX
  5
C9
  8
0
 10
78.3000000000011482
 20
-75.0064445580141523
 30
0.0
 42
-0.9999999999999998
  0
VERTEX
  5
CA
  8
0
 10
78.3000000000011767
 20
-77.1064445580142603
 30
0.0
  0
SEQEND
  5
C8
  8
0
  0
POLYLINE
  5
CB
  8
0
 66
     1
 10
0.0
 20
0.0
 30
0.0
 70
     1
  0
VERTEX
  5
CC
  8
0
 10
92.3000000000000256
 20
-77.1064445580145161
 30
0.0
 42
-0.9999999999999998
  0
VERTEX
  5
CD
  8
0
 10
92.3000000000000256
 20
-75.0064445580145076
 30
0.0
  0
VERTEX
  5
CF
  8
0
 10
106.2999999999999972
 20
-75.0064445580143797
 30
0.0
 42
-0.9999999999999998
  0
VERTEX
  5
D0
  8
0
 10
106.2999999999999972
 20
-77.1064445580144877
 30
0.0
  0
SEQEND
  5
CE
  8
0
  0
POLYLINE
  5
D1
  8
0
 66
     1
 10
0.0
 20
0.0
 30
0.0
 70
     1
  0
VERTEX
  5
D2
  8
0
 10
120.2999999999999972
 20
-77.1064445580145161
 30
0.0
 42
-0.9999999999999998
  0
VERTEX
  5
D3
  8
0
 10
120.2999999999999972
 20
-75.0064445580145218
 30
0.0
  0
VERTEX
  5
D5
  8
0
 10
134.3000000000000114
 20
-75.0064445580144081
 30
0.0
 42
-0.9999999999999998
  0
VERTEX
  5
D6
  8
0
 10
134.3000000000000114
 20
-77.1064445580145019
 30
0.0
  0
SEQEND
  5
D4
  8
0
  0
POLYLINE
  5
D7
  8
0
 66
     1
 10
0.0
 20
0.0
 30
0.0
 70
     1
  0
VERTEX
  5
D8
  8
0
 10
134.2999999999987892
 20
-5.4681481860035559
 30
0.0
 42
-0.9999999999999998
  0
VERTEX
  5
D9
  8
0
 10
134.2999999999987892
 20
-7.5681481860035511
 30
0.0
  0
VERTEX
  5
DB
  8
0
 10
120.2999999999988034
 20
-7.5681481860040458
 30
0.0
 42
-0.9999999999999998
  0
VERTEX
  5
DC
  8
0
 10
120.2999999999988034
 20
-5.4681481860039653
 30
0.0
  0
SEQEND
  5
DA
  8
0
  0
POLYLINE
  5
DD
  8
0
 66
     1
 10
0.0
 20
0.0
 30
0.0
 70
     1
  0
VERTEX
  5
DE
  8
0
 10
36.3000000000000185
 20
-7.5681481860056108
 30
0.0
 42
-0.9999999999999998
  0
VERTEX
  5
DF
  8
0
 10
36.3000000000000185
 20
-5.4681481860056174
 30
0.0
  0
VERTEX
  5
E1
  8
0
 10
50.3000000000000114
 20
-5.4681481860057159
 30
0.0
 42
-0.9999999999999998
  0
VERTEX
  5
E2
  8
0
 10
50.3000000000000114
 20
-7.5681481860057032
 30
0.0
  0
SEQEND
  5
E0
  8
0
  0
POLYLINE
  5
E3
  8
0
 66
     1
 10
0.0
 20
0.0
 30
0.0
 70
     1
  0
VERTEX
  5
E4
  8
0
 10
78.3000000000000114
 20
-5.4681481860057017
 30
0.0
 42
-0.9999999999999998
  0
VERTEX
  5
E5
  8
0
 10
78.3000000000000114
 20
-7.568148186005704
 30
0.0
  0
VERTEX
  5
E7
  8
0
 10
64.3000000000000114
 20
-7.5681481860057067
 30
0.0
 42
-0.9999999999999998
  0
VERTEX
  5
E8
  8
0
 10
64.3000000000000114
 20
-5.4681481860056227
 30
0.0
  0
SEQEND
  5
E6
  8
0
  0
POLYLINE
  5
E9
  8
0
 66
     1
 10
0.0
 20
0.0
 30
0.0
 70
     1
  0
VERTEX
  5
EA
  8
0
 10
148.9191481860050033
 20
-45.2872963720087398
 30
0.0
 42
-0.9999999999999998
  0
VERTEX
  5
EB
  8
0
 10
146.8191481860048953
 20
-45.2872963720087682
 30
0.0
  0
VERTEX
  5
ED
  8
0
 10
146.8191481860050942
 20
-37.2872963720087824
 30
0.0
 42
-0.9999999999999998
  0
VERTEX
  5
EE
  8
0
 10
148.9191481860046906
 20
-37.2872963720087398
 30
0.0
  0
SEQEND
  5
EC
  8
0
  0
POLYLINE
  5
EF
  8
0
 66
     1
 10
0.0
 20
0.0
 30
0.0
 70
     1
  0
VERTEX
  5
F0
  8
0
 10
-4.2191481860047766
 20
-45.2872963720113191
 30
0.0
 42
-0.9999999999999998
  0
VERTEX
  5
F1
  8
0
 10
-6.3191481860047771
 20
-45.2872963720113475
 30
0.0
  0
VERTEX
  5
F3
  8
0
 10
-6.3191481860052248
 20
-37.2872963720113617
 30
0.0
 42
-0.9999999999999998
  0
VERTEX
  5
F4
  8
0
 10
-4.2191481860049809
 20
-37.2872963720113333
 30
0.0
  0
SEQEND
  5
F2
  8
0
  0
POLYLINE
  5
F5
  8
0
 66
     1
 10
0.0
 20
0.0
 30
0.0
 70
     1
  0
VERTEX
  5
F6
  8
0
 10
-4.219148186005123
 20
-25.2872963720113191
 30
0.0
 42
-0.9999999999999998
  0
VERTEX
  5
F7
  8
0
 10
-6.3191481860051226
 20
-25.2872963720113617
 30
0.0
  0
VERTEX
  5
F9
  8
0
 10
-6.3191481860055632
 20
-17.2872963720113511
 30
0.0
 42
-0.9999999999999998
  0
VERTEX
  5
FA
  8
0
 10
-4.2191481860053193
 20
-17.2872963720113084
 30
0.0
  0
SEQEND
  5
F8
  8
0
  0
POLYLINE
  5
FB
  8
0
 66
     1
 10
0.0
 20
0.0
 30
0.0
 70
     1
  0
VERTEX
  5
FC
  8
0
 10
1.249999999999982
 20
-33.2872963720113475
 30
0.0
  0
VERTEX
  5
FD
  8
0
 10
1.2499999999999909
 20
-21.8412256569018304
 30
0.0
 42
-0.5617961393607669
  0
VERTEX
  5
FF
  8
0
 10
8.5439019991384733
 20
-17.3984772262174587
 30
0.0
  0
VERTEX
  5
100
  8
0
 10
29.6977054309514195
 20
-28.320714381595451
 30
0.0
 42
-0.3481733393987666
  0
VERTEX
  5
101
  8
0
 10
32.253260084411103
 20
-33.9811533208129219
 30
0.0
 42
0.00385054773769
  0
VERTEX
  5
102
  8
0
 10
32.1441856501700229
 20
-34.4301535148685076
 30
0.0
 42
-0.3481733393987654
  0
VERTEX
  5
103
  8
0
 10
27.2765499251983492
 20
-38.2872963720113688
 30
0.0
  0
VERTEX
  5
104
  8
0
 10
6.2499999999999911
 20
-38.2872963720113617
 30
0.0
 42
-0.4142135623730955
  0
SEQEND
  5
FE
  8
0
  0
POLYLINE
  5
105
  8
0
 66
     1
 10
0.0
 20
0.0
 30
0.0
 70
     1
  0
VERTEX
  5
106
  8
0
 10
32.1441856501700229
 20
-48.14443922915423
 30
0.0
 42
0.00385054773769
  0
VERTEX
  5
107
  8
0
 10
32.2532600844110817
 20
-48.5934394232097873
 30
0.0
 42
-0.3481733393987666
  0
VERTEX
  5
109
  8
0
 10
29.697705430951391
 20
-54.2538783624272583
 30
0.0
  0
VERTEX
  5
10A
  8
0
 10
8.5439019991384502
 20
-65.1761155178052149
 30
0.0
 42
-0.5617961393607664
  0
VERTEX
  5
10B
  8
0
 10
1.249999999999982
 20
-60.7333670871208327
 30
0.0
  0
VERTEX
  5
10C
  8
0
 10
1.2499999999999909
 20
-49.2872963720113617
 30
0.0
 42
-0.4142135623730951
  0
VERTEX
  5
10D
  8
0
 10
6.2499999999999911
 20
-44.2872963720113475
 30
0.0
  0
VERTEX
  5
10E
  8
0
 10
27.2765499251983314
 20
-44.2872963720113617
 30
0.0
 42
-0.348173339398766
  0
SEQEND
  5
108
  8
0
  0
POLYLINE
  5
10F
  8
0
 66
     1
 10
0.0
 20
0.0
 30
0.0
 70
     1
  0
VERTEX
  5
110
  8
0
 10
134.5070732893645982
 20
-67.0669669548533989
 30
0.0
  0
VERTEX
  5
111
  8
0
 10
115.707073289364601
 20
-59.6127395496055925
 30
0.0
 42
-0.3075045376038599
  0
VERTEX
  5
113
  8
0
 10
112.5499999999999972
 20
-54.964769977929528
 30
0.0
  0
VERTEX
  5
114
  8
0
 10
112.5499999999999972
 20
-49.287296372011383
 30
0.0
 42
-0.4142135623730951
  0
VERTEX
  5
115
  8
0
 10
117.5499999999999972
 20
-44.287296372011383
 30
0.0
  0
VERTEX
  5
116
  8
0
 10
136.3499999999999943
 20
-44.287296372011383
 30
0.0
 42
-0.4142135623730951
  0
VERTEX
  5
117
  8
0
 10
141.3499999999999943
 20
-49.287296372011383
 30
0.0
  0
VERTEX
  5
118
  8
0
 10
141.3499999999999943
 20
-62.4189973831773415
 30
0.0
 42
-0.5296314027829007
  0
SEQEND
  5
112
  8
0
  0
POLYLINE
  5
119
  8
0
 66
     1
 10
0.0
 20
0.0
 30
0.0
 70
     1
  0
VERTEX
  5
11A
  8
0
 10
93.7999614791758631
 20
-44.2872963720113688
 30
0.0
  0
VERTEX
  5
11B
  8
0
 10
102.5499999999999972
 20
-44.2872963720113617
 30
0.0
 42
-0.4142135623730951
  0
VERTEX
  5
11D
  8
0
 10
105.5499999999999972
 20
-47.2872963720113688
 30
0.0
  0
VERTEX
  5
11E
  8
0
 10
105.5499999999999972
 20
-51.1687251916103421
 30
0.0
 42
-0.5296314027829006
  0
VERTEX
  5
11F
  8
0
 10
101.4442439736186969
 20
-53.9575069346159708
 30
0.0
  0
VERTEX
  5
120
  8
0
 10
92.6210427378352108
 20
-50.45909478281839
 30
0.0
 42
-0.361621494786479
  0
VERTEX
  5
121
  8
0
 10
90.7834534220149578
 20
-47.0900387972853594
 30
0.0
 42
0.0029541297746653
  0
VERTEX
  5
122
  8
0
 10
90.8499649810690073
 20
-46.7418418265568505
 30
0.0
 42
-0.3616214947864798
  0
SEQEND
  5
11C
  8
0
  0
POLYLINE
  5
123
  8
0
 66
     1
 10
0.0
 20
0.0
 30
0.0
 70
     1
  0
VERTEX
  5
124
  8
0
 10
78.5074666576793447
 20
-65.8966713720112836
 30
0.0
 42
0.0652794401971972
  0
VERTEX
  5
125
  8
0
 10
84.2718749999999943
 20
-60.6415632525825927
 30
0.0
 42
-0.6990614823872791
  0
VERTEX
  5
127
  8
0
 10
87.7999999999999829
 20
-61.9318477112873111
 30
0.0
  0
VERTEX
  5
128
  8
0
 10
87.7999999999999829
 20
-67.5372963720112836
 30
0.0
 42
-0.4142135623730951
  0
VERTEX
  5
129
  8
0
 10
85.7999999999999829
 20
-69.5372963720112978
 30
0.0
  0
VERTEX
  5
12A
  8
0
 10
79.6512977681912844
 20
-69.5372963720112836
 30
0.0
 42
-0.7340094819176631
  0
SEQEND
  5
126
  8
0
  0
POLYLINE
  5
12B
  8
0
 66
     1
 10
0.0
 20
0.0
 30
0.0
 70
     1
  0
VERTEX
  5
12C
  8
0
 10
28.0500000000000007
 20
-69.5372963720112836
 30
0.0
  0
VERTEX
  5
12D
  8
0
 10
21.4083868273905296
 20
-69.5372963720112836
 30
0.0
 42
-0.786156549904001
  0
VERTEX
  5
12F
  8
0
 10
20.4908260277351388
 20
-65.7601969997375306
 30
0.0
  0
VERTEX
  5
130
  8
0
 10
27.1324392003445993
 20
-62.3309662044646089
 30
0.0
 42
-0.5617961393607683
  0
VERTEX
  5
131
  8
0
 10
30.0500000000000007
 20
-64.1080655767383547
 30
0.0
  0
VERTEX
  5
132
  8
0
 10
30.0500000000000114
 20
-67.5372963720112836
 30
0.0
 42
-0.4142135623730937
  0
SEQEND
  5
12E
  8
0
  0
POLYLINE
  5
133
  8
0
 66
     1
 10
0.0
 20
0.0
 30
0.0
 70
     1
  0
VERTEX
  5
134
  8
0
 10
43.0487022318086474
 20
-69.5372963720112836
 30
0.0
  0
VERTEX
  5
135
  8
0
 10
39.0499999999999901
 20
-69.5372963720112836
 30
0.0
 42
-0.4142135623730964
  0
VERTEX
  5
137
  8
0
 10
37.0499999999999901
 20
-67.5372963720112693
 30
0.0
  0
VERTEX
  5
138
  8
0
 10
37.0499999999999972
 20
-64.2374597701225127
 30
0.0
 42
-0.6629956458213384
  0
VERTEX
  5
139
  8
0
 10
40.4437499999999872
 20
-62.8030745577405796
 30
0.0
 42
0.0405701966083335
  0
VERTEX
  5
13A
  8
0
 10
44.1925333423206226
 20
-65.8966713720112836
 30
0.0
 42
-0.734009481917658
  0
SEQEND
  5
136
  8
0
  0
POLYLINE
  5
13B
  8
0
 66
     1
 10
0.0
 20
0.0
 30
0.0
 70
     1
  0
VERTEX
  5
13C
  8
0
 10
44.1925333423206297
 20
-16.6779213720114399
 30
0.0
 42
0.0405701966083337
  0
VERTEX
  5
13D
  8
0
 10
40.4437500000000085
 20
-19.771518186282151
 30
0.0
 42
-0.6629956458213364
  0
VERTEX
  5
13F
  8
0
 10
37.0499999999999972
 20
-18.3371329739002107
 30
0.0
  0
VERTEX
  5
140
  8
0
 10
37.0500000000000185
 20
-15.0372963720114505
 30
0.0
 42
-0.4142135623730951
  0
VERTEX
  5
141
  8
0
 10
39.0500000000000114
 20
-13.0372963720114505
 30
0.0
  0
VERTEX
  5
142
  8
0
 10
43.0487022318086687
 20
-13.0372963720114505
 30
0.0
 42
-0.7340094819176599
  0
SEQEND
  5
13E
  8
0
  0
POLYLINE
  5
143
  8
0
 66
     1
 10
0.0
 20
0.0
 30
0.0
 70
     1
  0
VERTEX
  5
144
  8
0
 10
30.0500000000000291
 20
-15.0372963720114399
 30
0.0
  0
VERTEX
  5
145
  8
0
 10
30.0500000000000291
 20
-18.466527167284351
 30
0.0
 42
-0.5617961393607686
  0
VERTEX
  5
147
  8
0
 10
27.13243920034461
 20
-20.2436265395581003
 30
0.0
  0
VERTEX
  5
148
  8
0
 10
20.4908260277351708
 20
-16.8143957442851786
 30
0.0
 42
-0.7861565499040021
  0
VERTEX
  5
149
  8
0
 10
21.4083868273905509
 20
-13.0372963720114292
 30
0.0
  0
VERTEX
  5
14A
  8
0
 10
28.0500000000000398
 20
-13.0372963720114399
 30
0.0
 42
-0.4142135623730964
  0
SEQEND
  5
146
  8
0
  0
POLYLINE
  5
14B
  8
0
 66
     1
 10
0.0
 20
0.0
 30
0.0
 70
     1
  0
VERTEX
  5
14C
  8
0
 10
79.651297768191327
 20
-13.0372963720114505
 30
0.0
  0
VERTEX
  5
14D
  8
0
 10
85.8000000000000114
 20
-13.0372963720114594
 30
0.0
 42
-0.4142135623730951
  0
VERTEX
  5
14F
  8
0
 10
87.7999999999999829
 20
-15.0372963720114701
 30
0.0
  0
VERTEX
  5
150
  8
0
 10
87.8000000000000114
 20
-20.6427450327354514
 30
0.0
 42
-0.6990614823872791
  0
VERTEX
  5
151
  8
0
 10
84.2718749999999943
 20
-21.9330294914401911
 30
0.0
 42
0.0652794401971972
  0
VERTEX
  5
152
  8
0
 10
78.5074666576793732
 20
-16.6779213720114612
 30
0.0
 42
-0.7340094819176599
  0
SEQEND
  5
14E
  8
0
  0
POLYLINE
  5
153
  8
0
 66
     1
 10
0.0
 20
0.0
 30
0.0
 70
     1
  0
VERTEX
  5
154
  8
0
 10
92.6210427378352392
 20
-32.1154979612043618
 30
0.0
  0
VERTEX
  5
155
  8
0
 10
101.4442439736187964
 20
-28.6170858094067988
 30
0.0
 42
-0.5296314027828966
  0
VERTEX
  5
157
  8
0
 10
105.5499999999999972
 20
-31.4058675524124418
 30
0.0
  0
VERTEX
  5
158
  8
0
 10
105.5499999999999972
 20
-35.2872963720113972
 30
0.0
 42
-0.4142135623730951
  0
VERTEX
  5
159
  8
0
 10
102.5499999999999972
 20
-38.2872963720114114
 30
0.0
  0
VERTEX
  5
15A
  8
0
 10
93.7999614791758631
 20
-38.2872963720113901
 30
0.0
 42
-0.3616214947864802
  0
VERTEX
  5
15B
  8
0
 10
90.8499649810689789
 20
-35.8327509174659511
 30
0.0
 42
0.002954129774663
  0
VERTEX
  5
15C
  8
0
 10
90.7834534220149862
 20
-35.4845539467373996
 30
0.0
 42
-0.3616214947864831
  0
SEQEND
  5
156
  8
0
  0
POLYLINE
  5
15D
  8
0
 66
     1
 10
0.0
 20
0.0
 30
0.0
 70
     1
  0
VERTEX
  5
15E
  8
0
 10
136.3499999999999943
 20
-38.2872963720114114
 30
0.0
  0
VERTEX
  5
15F
  8
0
 10
117.5499999999999972
 20
-38.2872963720113972
 30
0.0
 42
-0.4142135623730951
  0
VERTEX
  5
161
  8
0
 10
112.5499999999999972
 20
-33.2872963720113972
 30
0.0
  0
VERTEX
  5
162
  8
0
 10
112.5499999999999972
 20
-27.6098227660932594
 30
0.0
 42
-0.3075045376038599
  0
VERTEX
  5
163
  8
0
 10
115.707073289364601
 20
-22.9618531944171984
 30
0.0
  0
VERTEX
  5
164
  8
0
 10
134.5070732893645982
 20
-15.5076257891693992
 30
0.0
 42
-0.5296314027828983
  0
VERTEX
  5
165
  8
0
 10
141.3499999999999943
 20
-20.1555953608454708
 30
0.0
  0
VERTEX
  5
166
  8
0
 10
141.3499999999999943
 20
-33.2872963720114114
 30
0.0
 42
-0.4142135623730951
  0
SEQEND
  5
160
  8
0
  0
POLYLINE
  5
167
  8
0
 66
     1
 10
0.0
 20
0.0
 30
0.0
 70
     1
  0
VERTEX
  5
168
  8
0
 10
-6.319148186004635
 20
-57.2872963720113688
 30
0.0
 42
-0.9999999999999998
  0
VERTEX
  5
169
  8
0
 10
-4.2191481860046354
 20
-57.2872963720113404
 30
0.0
  0
VERTEX
  5
16B
  8
0
 10
-4.2191481860047553
 20
-65.2872963720113404
 30
0.0
 42
-0.9999999999999998
  0
VERTEX
  5
16C
  8
0
 10
-6.3191481860044387
 20
-65.287296372011383
 30
0.0
  0
SEQEND
  5
16A
  8
0
  0
POLYLINE
  5
16D
  8
0
 66
     1
 10
0.0
 20
0.0
 30
0.0
 70
     1
  0
VERTEX
  5
16E
  8
0
 10
148.9191481860046053
 20
-25.2872963720087398
 30
0.0
 42
-0.9999999999999998
  0
VERTEX
  5
16F
  8
0
 10
146.819148186004611
 20
-25.2872963720087682
 30
0.0
  0
VERTEX
  5
171
  8
0
 10
146.81914818600481
 20
-17.2872963720087611
 30
0.0
 42
-0.9999999999999998
  0
VERTEX
  5
172
  8
0
 10
148.9191481860044064
 20
-17.2872963720087292
 30
0.0
  0
SEQEND
  5
170
  8
0
  0
POLYLINE
  5
173
  8
0
 66
     1
 10
0.0
 20
0.0
 30
0.0
 70
     1
  0
VERTEX
  5
174
  8
0
 10
146.8191481860050089
 20
-57.2872963720087895
 30
0.0
 42
-0.9999999999999998
  0
VERTEX
  5
175
  8
0
 10
148.9191481860050033
 20
-57.2872963720087469
 30
0.0
  0
VERTEX
  5
177
  8
0
 10
148.9191481860054864
 20
-65.287296372008754
 30
0.0
 42
-0.9999999999999998
  0
VERTEX
  5
178
  8
0
 10
146.8191481860052932
 20
-65.2872963720087967
 30
0.0
  0
SEQEND
  5
176
  8
0
  0
POLYLINE
  5
179
  8
0
 66
     1
 10
0.0
 20
0.0
 30
0.0
 70
     1
  0
VERTEX
  5
17A
  8
0
 10
106.2999999999988034
 20
-5.468148186004516
 30
0.0
 42
-0.9999999999999998
  0
VERTEX
  5
17B
  8
0
 10
106.2999999999988034
 20
-7.5681481860045103
 30
0.0
  0
VERTEX
  5
17D
  8
0
 10
92.2999999999988745
 20
-7.5681481860049971
 30
0.0
 42
-0.9999999999999998
  0
VERTEX
  5
17E
  8
0
 10
92.2999999999988319
 20
-5.4681481860049042
 30
0.0
  0
SEQEND
  5
17C
  8
0
  0
POLYLINE
  5
17F
  8
0
 66
     1
 10
0.0
 20
0.0
 30
0.0
 70
     1
  0
VERTEX
  5
180
  8
0
 10
22.3000000000000007
 20
-5.4681481860055898
 30
0.0
 42
-0.9999999999999998
  0
VERTEX
  5
181
  8
0
 10
22.3000000000000007
 20
-7.568148186005585
 30
0.0
  0
VERTEX
  5
183
  8
0
 10
8.3000000000000007
 20
-7.5681481860056889
 30
0.0
 42
-0.9999999999999998
  0
VERTEX
  5
184
  8
0
 10
8.3000000000000007
 20
-5.4681481860056076
 30
0.0
  0
SEQEND
  5
182
  8
0
  0
POLYLINE
  5
185
  8
0
 66
     1
 10
0.0
 20
0.0
 30
0.0
 70
     1
  0
VERTEX
  5
186
  8
0
 10
145.5999999999999943
 20
-79.5745927440227234
 30
0.0
  0
VERTEX
  5
187
  8
0
 10
145.5999999999999943
 20
-75.2872963720114114
 30
0.0
 42
-0.4142135623730934
  0
VERTEX
  5
189
  8
0
 10
147.0999999999999943
 20
-73.7872963720114114
 30
0.0
  0
VERTEX
  5
18A
  8
0
 10
152.6073482277151925
 20
-73.7872963720114114
 30
0.0
 42
0.2744646381461913
  0
VERTEX
  5
18B
  8
0
 10
155.2410695372853979
 20
-72.2237893457206326
 30
0.0
  0
VERTEX
  5
18C
  8
0
 10
164.1099712331757132
 20
-55.9632048413388219
 30
0.0
 42
0.1254831270363554
  0
VERTEX
  5
18D
  8
0
 10
164.5372963720105872
 20
-54.2872963720113972
 30
0.0
  0
VERTEX
  5
18E
  8
0
 10
164.5372963720105872
 20
-28.2872963720114114
 30
0.0
 42
0.1254831270363532
  0
VERTEX
  5
18F
  8
0
 10
164.1099712331757985
 20
-26.6113879026839903
 30
0.0
  0
VERTEX
  5
190
  8
0
 10
155.2410695372853979
 20
-10.3508033983021903
 30
0.0
 42
0.274464638146193
  0
VERTEX
  5
191
  8
0
 10
152.6073482277153062
 20
-8.7872963720114132
 30
0.0
  0
VERTEX
  5
192
  8
0
 10
147.0999999999999943
 20
-8.7872963720114328
 30
0.0
 42
-0.4142135623730951
  0
VERTEX
  5
193
  8
0
 10
145.5999999999999943
 20
-7.2872963720114292
 30
0.0
  0
VERTEX
  5
194
  8
0
 10
145.5999999999999943
 20
-2.9999999999999978
 30
0.0
 42
0.4142135623730951
  0
VERTEX
  5
195
  8
0
 10
142.5999999999999091
 20
0.0000000000000028
 30
0.0
  0
VERTEX
  5
196
  8
0
 10
0.0
 20
0.0
 30
0.0
 42
0.4142135623730942
  0
VERTEX
  5
197
  8
0
 10
-3.0
 20
-2.9999999999999969
 30
0.0
  0
VERTEX
  5
198
  8
0
 10
-3.0000000000000071
 20
-7.2872963720113306
 30
0.0
 42
-0.4142135623730951
  0
VERTEX
  5
199
  8
0
 10
-4.5000000000000098
 20
-8.7872963720113315
 30
0.0
  0
VERTEX
  5
19A
  8
0
 10
-10.0073482277160704
 20
-8.7872963720113422
 30
0.0
 42
0.2744646381461932
  0
VERTEX
  5
19B
  8
0
 10
-12.6410695372862403
 20
-10.3508033983021193
 30
0.0
  0
VERTEX
  5
19C
  8
0
 10
-21.5099712331766213
 20
-26.6113879026839015
 30
0.0
 42
0.1254831270363548
  0
VERTEX
  5
19D
  8
0
 10
-21.9372963720114207
 20
-28.2872963720113404
 30
0.0
  0
VERTEX
  5
19E
  8
0
 10
-21.9372963720114385
 20
-54.2872963720113333
 30
0.0
 42
0.1254831270363545
  0
VERTEX
  5
19F
  8
0
 10
-21.5099712331766391
 20
-55.9632048413387579
 30
0.0
  0
VERTEX
  5
1A0
  8
0
 10
-12.6410695372862705
 20
-72.2237893457205757
 30
0.0
 42
0.2744646381461926
  0
VERTEX
  5
1A1
  8
0
 10
-10.0073482277160899
 20
-73.7872963720113404
 30
0.0
  0
VERTEX
  5
1A2
  8
0
 10
-4.5000000000000187
 20
-73.7872963720113262
 30
0.0
 42
-0.4142135623730951
  0
VERTEX
  5
1A3
  8
0
 10
-3.0000000000000191
 20
-75.2872963720113262
 30
0.0
  0
VERTEX
  5
1A4
  8
0
 10
-3.0000000000000151
 20
-79.5745927440227234
 30
0.0
 42
0.4142135623730951
  0
VERTEX
  5
1A5
  8
0
 10
-0.0000000000000272
 20
-82.5745927440227234
 30
0.0
  0
VERTEX
  5
1A6
  8
0
 10
142.5999999999999943
 20
-82.5745927440227234
 30
0.0
 42
0.4142135623730943
  0
SEQEND
  5
188
  8
0
  0
CIRCLE
  5
1A7
  8
0
 10
161.0372963720122073
 20
-28.2872963720114008
 30
0.0
 40
1.05
  0
CIRCLE
  5
1A8
  8
0
 10
161.0372963720122073
 20
-54.2872963720113972
 30
0.0
 40
1.050000000000004
  0
CIRCLE
  5
1A9
  8
0
 10
61.3499999999999801
 20
-41.2872963720113688
 30
0.0
 40
17.5
  0
CIRCLE
  5
1AA
  8
0
 10
109.0499999999999972
 20
-70.2872963720114114
 30
0.0
 40
1.05
  0
CIRCLE
  5
1AB
  8
0
 10
109.0499999999999972
 20
-19.2872963720114008
 30
0.0
 40
1.05
  0
CIRCLE
  5
1AC
  8
0
 10
33.5499999999999972
 20
-19.2872963720113688
 30
0.0
 40
1.05
  0
CIRCLE
  5
1AD
  8
0
 10
33.5499999999999972
 20
-12.2872963720113706
 30
0.0
 40
1.05
  0
CIRCLE
  5
1AE
  8
0
 10
33.5499999999999901
 20
-70.287296372011383
 30
0.0
 40
1.05
  0
CIRCLE
  5
1AF
  8
0
 10
33.5499999999999901
 20
-63.2872963720113901
 30
0.0
 40
1.05
  0
CIRCLE
  5
1B0
  8
0
 10
109.0499999999999972
 20
-12.2872963720114008
 30
0.0
 40
1.05
  0
CIRCLE
  5
1B1
  8
0
 10
109.0499999999999972
 20
-63.2872963720114114
 30
0.0
 40
1.05
  0
CIRCLE
  5
1B2
  8
0
 10
91.2999999999999829
 20
-62.7872963720113972
 30
0.0
 40
1.05
  0
CIRCLE
  5
1B3
  8
0
 10
98.2999999999999829
 20
-62.7872963720113972
 30
0.0
 40
1.05
  0
CIRCLE
  5
1B4
  8
0
 10
98.3000000000000114
 20
-19.7872963720114114
 30
0.0
 40
1.05
  0
CIRCLE
  5
1B5
  8
0
 10
91.2999999999999829
 20
-19.7872963720114114
 30
0.0
 40
1.05
  0
CIRCLE
  5
1B6
  8
0
 10
-18.4372963720114385
 20
-54.2872963720113333
 30
0.0
 40
1.050000000000004
  0
CIRCLE
  5
1B7
  8
0
 10
-18.4372963720114207
 20
-28.2872963720113404
 30
0.0
 40
1.05
  0
ENDSEC
  0
EOF
